VOLTS,CURRNT_NAMP,TEMP_DEGC,AIR_TEMP_DEGC,RH_PRCNT
0.00E+00,-8.18E-02,2.00E+01,2.45E+01,0.00E+00
-1.00E+01,4.94E+02,2.00E+01,2.45E+01,0.00E+00
-2.00E+01,5.12E+02,2.00E+01,2.45E+01,0.00E+00
-3.00E+01,3.77E+02,2.00E+01,2.45E+01,0.00E+00
-4.00E+01,2.01E+02,2.00E+01,2.45E+01,0.00E+00
-5.00E+01,5.13E+01,2.00E+01,2.45E+01,0.00E+00
-6.00E+01,3.36E-01,2.00E+01,2.45E+01,0.00E+00
-7.00E+01,1.76E-02,2.00E+01,2.45E+01,0.00E+00
-8.00E+01,6.37E-03,2.00E+01,2.45E+01,0.00E+00
-9.00E+01,6.58E-03,2.00E+01,2.45E+01,0.00E+00
-1.00E+02,7.04E-03,2.00E+01,2.45E+01,0.00E+00
-1.10E+02,7.39E-03,2.00E+01,2.45E+01,0.00E+00
-1.20E+02,8.36E-03,2.00E+01,2.45E+01,0.00E+00
-1.30E+02,8.06E-03,2.00E+01,2.45E+01,0.00E+00
-1.40E+02,8.08E-03,2.00E+01,2.45E+01,0.00E+00
-1.50E+02,8.30E-03,2.00E+01,2.45E+01,0.00E+00
-1.60E+02,8.46E-03,2.00E+01,2.45E+01,0.00E+00
-1.70E+02,8.70E-03,2.00E+01,2.45E+01,0.00E+00
-1.80E+02,8.91E-03,2.00E+01,2.45E+01,0.00E+00
-1.90E+02,9.24E-03,2.00E+01,2.45E+01,0.00E+00
-2.00E+02,9.41E-03,2.00E+01,2.45E+01,0.00E+00
-2.10E+02,9.52E-03,2.00E+01,2.45E+01,0.00E+00
-2.20E+02,1.04E-02,2.00E+01,2.45E+01,0.00E+00
-2.30E+02,1.05E-02,2.00E+01,2.45E+01,0.00E+00
-2.40E+02,1.04E-02,2.00E+01,2.45E+01,0.00E+00
-2.50E+02,1.06E-02,2.00E+01,2.45E+01,0.00E+00
-2.60E+02,1.10E-02,2.00E+01,2.45E+01,0.00E+00
-2.70E+02,1.13E-02,2.00E+01,2.45E+01,0.00E+00
-2.80E+02,1.17E-02,2.00E+01,2.45E+01,0.00E+00
-2.90E+02,1.19E-02,2.00E+01,2.45E+01,0.00E+00
-3.00E+02,1.20E-02,2.00E+01,2.45E+01,0.00E+00
-3.10E+02,1.23E-02,2.00E+01,2.45E+01,0.00E+00
-3.20E+02,1.29E-02,2.00E+01,2.45E+01,0.00E+00
-3.30E+02,1.41E-02,2.00E+01,2.45E+01,0.00E+00
-3.40E+02,1.52E-02,2.00E+01,2.45E+01,0.00E+00
-3.50E+02,1.66E-02,2.00E+01,2.45E+01,0.00E+00
-3.60E+02,1.86E-02,2.00E+01,2.45E+01,0.00E+00
-3.70E+02,2.13E-02,2.00E+01,2.45E+01,0.00E+00
-3.80E+02,2.47E-02,2.00E+01,2.45E+01,0.00E+00
-3.90E+02,2.87E-02,2.00E+01,2.45E+01,0.00E+00
-4.00E+02,3.33E-02,2.00E+01,2.45E+01,0.00E+00
-4.10E+02,3.86E-02,2.00E+01,2.45E+01,0.00E+00
-4.20E+02,4.51E-02,2.00E+01,2.45E+01,0.00E+00
-4.30E+02,5.35E-02,2.00E+01,2.45E+01,0.00E+00
-4.40E+02,6.25E-02,2.00E+01,2.45E+01,0.00E+00
-4.50E+02,7.28E-02,2.00E+01,2.45E+01,0.00E+00
-4.60E+02,8.50E-02,2.00E+01,2.45E+01,0.00E+00
-4.70E+02,9.88E-02,2.00E+01,2.45E+01,0.00E+00
-4.80E+02,1.17E-01,2.00E+01,2.45E+01,0.00E+00
-4.90E+02,1.35E-01,2.00E+01,2.45E+01,0.00E+00
-5.00E+02,1.56E-01,2.00E+01,2.45E+01,0.00E+00
-5.10E+02,1.78E-01,2.00E+01,2.45E+01,0.00E+00
-5.20E+02,2.09E-01,2.00E+01,2.45E+01,0.00E+00
-5.30E+02,2.38E-01,2.00E+01,2.45E+01,0.00E+00
-5.40E+02,2.73E-01,2.00E+01,2.45E+01,0.00E+00
-5.50E+02,3.10E-01,2.00E+01,2.45E+01,0.00E+00
-5.60E+02,3.52E-01,2.00E+01,2.45E+01,0.00E+00
-5.70E+02,4.07E-01,2.00E+01,2.45E+01,0.00E+00
-5.80E+02,4.60E-01,2.00E+01,2.45E+01,0.00E+00
-5.90E+02,5.13E-01,2.00E+01,2.45E+01,0.00E+00
-6.00E+02,5.80E-01,2.00E+01,2.45E+01,0.00E+00
-6.10E+02,6.48E-01,2.00E+01,2.45E+01,0.00E+00
-6.20E+02,7.42E-01,2.00E+01,2.45E+01,0.00E+00
-6.30E+02,7.91E-01,2.00E+01,2.45E+01,0.00E+00
-6.40E+02,8.88E-01,2.00E+01,2.45E+01,0.00E+00
-6.50E+02,9.72E-01,2.00E+01,2.45E+01,0.00E+00
-6.60E+02,1.09E+00,2.00E+01,2.45E+01,0.00E+00
-6.70E+02,1.21E+00,2.00E+01,2.45E+01,0.00E+00
-6.80E+02,1.30E+00,2.00E+01,2.45E+01,0.00E+00
-6.90E+02,1.46E+00,2.00E+01,2.45E+01,0.00E+00
-7.00E+02,1.61E+00,2.00E+01,2.45E+01,0.00E+00
-7.10E+02,1.76E+00,2.00E+01,2.45E+01,0.00E+00
-7.20E+02,1.92E+00,2.00E+01,2.45E+01,0.00E+00
-7.30E+02,2.09E+00,2.00E+01,2.45E+01,0.00E+00
-7.40E+02,2.31E+00,2.00E+01,2.45E+01,0.00E+00
-7.50E+02,2.49E+00,2.00E+01,2.45E+01,0.00E+00
-7.60E+02,2.74E+00,2.00E+01,2.45E+01,0.00E+00
-7.70E+02,2.98E+00,2.00E+01,2.45E+01,0.00E+00
-7.80E+02,3.29E+00,2.00E+01,2.45E+01,0.00E+00
-7.90E+02,3.60E+00,2.00E+01,2.45E+01,0.00E+00
-8.00E+02,3.87E+00,2.00E+01,2.45E+01,0.00E+00
-8.10E+02,4.20E+00,2.00E+01,2.45E+01,0.00E+00
-8.20E+02,4.58E+00,2.00E+01,2.45E+01,0.00E+00
-8.30E+02,4.94E+00,2.00E+01,2.45E+01,0.00E+00
-8.40E+02,5.36E+00,2.00E+01,2.45E+01,0.00E+00
-8.50E+02,5.82E+00,2.00E+01,2.45E+01,0.00E+00
-8.60E+02,6.28E+00,2.00E+01,2.45E+01,0.00E+00
-8.70E+02,6.72E+00,2.00E+01,2.45E+01,0.00E+00
-8.80E+02,7.31E+00,2.00E+01,2.45E+01,0.00E+00
-8.90E+02,7.74E+00,2.00E+01,2.45E+01,0.00E+00
-9.00E+02,8.33E+00,2.00E+01,2.45E+01,0.00E+00
-9.10E+02,9.14E+00,2.00E+01,2.45E+01,0.00E+00
-9.20E+02,9.61E+00,2.00E+01,2.45E+01,0.00E+00
-9.30E+02,1.03E+01,2.00E+01,2.45E+01,0.00E+00
-9.40E+02,1.09E+01,2.00E+01,2.45E+01,0.00E+00
-9.50E+02,1.18E+01,2.00E+01,2.45E+01,0.00E+00
-9.60E+02,1.27E+01,2.00E+01,2.45E+01,0.00E+00
-9.70E+02,1.38E+01,2.00E+01,2.45E+01,0.00E+00
-9.80E+02,1.47E+01,2.00E+01,2.45E+01,0.00E+00
-9.90E+02,1.59E+01,2.00E+01,2.45E+01,0.00E+00
-1.00E+03,1.72E+01,2.00E+01,2.45E+01,0.00E+00
