#Measurement file	
#project	CMS tracker
#Sensor Type	PSS
#ID	34342_017_PSS_MAINL
#Scratch PAD	|0000|0000|0000|0000|0001|0111|
#Operator	HPK
#Date	28-Sep-20
#Ingot No.	2984038-504
#Bad strips	0
#AC NG	none
#AC open	none
#AC short	none
#DC high	none
#DC low	none
#DC leaky	none
#Polysilicon Bias Resistance Upper [Mohm]	1.81 
#Polysilicon Bias Resistance Lower [Mohm]	1.60 
#Polysilicon Bias Resistance Average [Mohm]	1.70 
#Depletion voltage [V]	290
#temperature [deg]	25
#humidity [%]	50
	
voltage [V]	current [A]
0	4.395E-09
20	6.784E-08
40	7.06E-08
60	7.42E-08
80	7.545E-08
100	7.646E-08
120	7.766E-08
140	7.83E-08
160	7.914E-08
180	7.969E-08
200	8.041E-08
220	8.152E-08
240	7.808E-08
260	8.015E-08
280	8.185E-08
300	8.288E-08
320	8.365E-08
340	8.431E-08
360	8.49E-08
380	8.544E-08
400	8.596E-08
420	8.645E-08
440	8.693E-08
460	8.738E-08
480	8.783E-08
500	8.827E-08
520	8.87E-08
540	8.913E-08
560	8.955E-08
580	8.995E-08
600	9.037E-08
620	9.079E-08
640	9.12E-08
660	9.161E-08
680	9.203E-08
700	9.246E-08
720	9.288E-08
740	9.331E-08
760	9.375E-08
780	9.419E-08
800	9.465E-08
820	9.511E-08
840	9.559E-08
860	9.608E-08
880	9.66E-08
900	9.712E-08
920	9.767E-08
940	9.824E-08
960	9.883E-08
980	9.945E-08
1000	1.001E-07
	
voltage [V]	capacitance [F]
0	5.42349E-08
10	8.75635E-09
20	6.00711E-09
30	4.9121E-09
40	4.24171E-09
50	3.78765E-09
60	3.45919E-09
70	3.19105E-09
80	2.9732E-09
90	2.80401E-09
100	2.6607E-09
110	2.5372E-09
120	2.42953E-09
130	2.33452E-09
140	2.24949E-09
150	2.17326E-09
160	2.10415E-09
170	2.04404E-09
180	1.98439E-09
190	1.92759E-09
200	1.87751E-09
210	1.83089E-09
220	1.78663E-09
230	1.744E-09
240	1.70261E-09
250	1.66321E-09
260	1.6275E-09
270	1.59759E-09
280	1.57804E-09
290	1.56959E-09
300	1.56607E-09
310	1.56416E-09
320	1.56286E-09
330	1.56186E-09
340	1.56114E-09
350	1.5605E-09
360	1.55994E-09
370	1.55946E-09
380	1.55906E-09
390	1.55865E-09
400	1.55827E-09
	
#End of manufacturer data file		
