#Measurement file	
#project	CMS tracker
#Sensor Type	PSS
#ID	34342_040_PSS_MAINL
#Scratch PAD	|0000|0000|0000|0000|0100|0000|
#Operator	HPK
#Date	28-Sep-20
#Ingot No.	2984038-504
#Bad strips	0
#AC NG	none
#AC open	none
#AC short	none
#DC high	none
#DC low	none
#DC leaky	none
#Polysilicon Bias Resistance Upper [Mohm]	1.81 
#Polysilicon Bias Resistance Lower [Mohm]	1.60 
#Polysilicon Bias Resistance Average [Mohm]	1.70 
#Depletion voltage [V]	290
#temperature [deg]	25
#humidity [%]	50
	
voltage [V]	current [A]
0	4.062E-09
20	6.338E-08
40	6.566E-08
60	6.864E-08
80	6.973E-08
100	7.059E-08
120	7.166E-08
140	7.227E-08
160	7.285E-08
180	7.316E-08
200	7.352E-08
220	7.435E-08
240	7.056E-08
260	7.248E-08
280	7.436E-08
300	7.547E-08
320	7.625E-08
340	7.689E-08
360	7.747E-08
380	7.801E-08
400	7.851E-08
420	7.899E-08
440	7.944E-08
460	7.988E-08
480	8.031E-08
500	8.073E-08
520	8.114E-08
540	8.155E-08
560	8.196E-08
580	8.235E-08
600	8.275E-08
620	8.314E-08
640	8.353E-08
660	8.394E-08
680	8.433E-08
700	8.473E-08
720	8.514E-08
740	8.556E-08
760	8.598E-08
780	8.64E-08
800	8.683E-08
820	8.728E-08
840	8.774E-08
860	8.822E-08
880	8.871E-08
900	8.922E-08
920	8.975E-08
940	9.03E-08
960	9.088E-08
980	9.149E-08
1000	9.214E-08
	
voltage [V]	capacitance [F]
0	5.35647E-08
10	8.19158E-09
20	5.9317E-09
30	4.87136E-09
40	4.21553E-09
50	3.77779E-09
60	3.45264E-09
70	3.17391E-09
80	2.97053E-09
90	2.80163E-09
100	2.65846E-09
110	2.53502E-09
120	2.42748E-09
130	2.33244E-09
140	2.24747E-09
150	2.17137E-09
160	2.10282E-09
170	2.04333E-09
180	1.98379E-09
190	1.92652E-09
200	1.87416E-09
210	1.82689E-09
220	1.78292E-09
230	1.74059E-09
240	1.69981E-09
250	1.66129E-09
260	1.62632E-09
270	1.59692E-09
280	1.57727E-09
290	1.56858E-09
300	1.56486E-09
310	1.56287E-09
320	1.56157E-09
330	1.56051E-09
340	1.55978E-09
350	1.55916E-09
360	1.55856E-09
370	1.5581E-09
380	1.55765E-09
390	1.55727E-09
400	1.55689E-09
	
#End of manufacturer data file		
