#Measurement file	
#project	CMS tracker
#Sensor Type	PSS
#ID	34342_033_PSS_MAINR
#Scratch PAD	|0000|0000|0000|0000|0011|0011|
#Operator	HPK
#Date	28-Sep-20
#Ingot No.	2984038-504
#Bad strips	0
#AC NG	none
#AC open	none
#AC short	none
#DC high	none
#DC low	none
#DC leaky	none
#Polysilicon Bias Resistance Upper [Mohm]	1.81 
#Polysilicon Bias Resistance Lower [Mohm]	1.60 
#Polysilicon Bias Resistance Average [Mohm]	1.70 
#Depletion voltage [V]	280
#temperature [deg]	25
#humidity [%]	50
	
voltage [V]	current [A]
0	2.349E-09
20	6.439E-08
40	6.768E-08
60	6.964E-08
80	7.178E-08
100	7.301E-08
120	7.422E-08
140	7.495E-08
160	7.57E-08
180	7.624E-08
200	7.685E-08
220	7.757E-08
240	7.924E-08
260	8.18E-08
280	8.118E-08
300	8.24E-08
320	8.32E-08
340	8.392E-08
360	8.456E-08
380	8.516E-08
400	8.572E-08
420	8.624E-08
440	8.675E-08
460	8.725E-08
480	8.773E-08
500	8.821E-08
520	8.867E-08
540	8.912E-08
560	8.957E-08
580	9.001E-08
600	9.045E-08
620	9.089E-08
640	9.133E-08
660	9.176E-08
680	9.22E-08
700	9.262E-08
720	9.307E-08
740	9.35E-08
760	9.395E-08
780	9.441E-08
800	9.487E-08
820	9.534E-08
840	9.582E-08
860	9.632E-08
880	9.683E-08
900	9.736E-08
920	9.787E-08
940	9.846E-08
960	9.905E-08
980	9.966E-08
1000	1.003E-07
	
voltage [V]	capacitance [F]
0	6.18027E-08
10	8.19949E-09
20	5.69514E-09
30	4.73747E-09
40	4.13693E-09
50	3.71739E-09
60	3.40697E-09
70	3.13781E-09
80	2.94041E-09
90	2.7764E-09
100	2.63693E-09
110	2.51621E-09
120	2.41078E-09
130	2.31751E-09
140	2.23402E-09
150	2.15914E-09
160	2.0918E-09
170	2.03038E-09
180	1.97289E-09
190	1.918E-09
200	1.86741E-09
210	1.81968E-09
220	1.77451E-09
230	1.73083E-09
240	1.68551E-09
250	1.64597E-09
260	1.61232E-09
270	1.58729E-09
280	1.57407E-09
290	1.56866E-09
300	1.56608E-09
310	1.56448E-09
320	1.56334E-09
330	1.56247E-09
340	1.56175E-09
350	1.56111E-09
360	1.56062E-09
370	1.56015E-09
380	1.55972E-09
390	1.55934E-09
400	1.55898E-09
	
#End of manufacturer data file		
