#Measurement file	
#project	CMS tracker
#Sensor Type	PSS
#ID	34342_014_PSS_MAINR
#Scratch PAD	|0000|0000|0000|0000|0001|0100|
#Operator	HPK
#Date	28-Sep-20
#Ingot No.	2984038-504
#Bad strips	0
#AC NG	none
#AC open	none
#AC short	none
#DC high	none
#DC low	none
#DC leaky	none
#Polysilicon Bias Resistance Upper [Mohm]	1.81 
#Polysilicon Bias Resistance Lower [Mohm]	1.60 
#Polysilicon Bias Resistance Average [Mohm]	1.70 
#Depletion voltage [V]	280
#temperature [deg]	25
#humidity [%]	50
	
voltage [V]	current [A]
0	4.816E-09
20	6.859E-08
40	7.305E-08
60	7.522E-08
80	7.451E-08
100	7.956E-08
120	8.079E-08
140	8.157E-08
160	8.233E-08
180	8.282E-08
200	8.322E-08
220	8.383E-08
240	8.527E-08
260	8.725E-08
280	8.342E-08
300	8.437E-08
320	8.51E-08
340	8.574E-08
360	8.634E-08
380	8.689E-08
400	8.743E-08
420	8.794E-08
440	8.844E-08
460	8.893E-08
480	8.94E-08
500	8.987E-08
520	9.033E-08
540	9.079E-08
560	9.124E-08
580	9.169E-08
600	9.214E-08
620	9.259E-08
640	9.304E-08
660	9.348E-08
680	9.393E-08
700	9.439E-08
720	9.483E-08
740	9.529E-08
760	9.576E-08
780	9.623E-08
800	9.67E-08
820	9.719E-08
840	9.767E-08
860	9.817E-08
880	9.867E-08
900	9.919E-08
920	9.972E-08
940	1.0026E-07
960	1.0081E-07
980	1.0137E-07
1000	1.0196E-07
	
voltage [V]	capacitance [F]
0	6.17664E-08
10	8.20678E-09
20	5.61131E-09
30	4.6891E-09
40	4.1034E-09
50	3.68545E-09
60	3.37677E-09
70	3.13626E-09
80	2.91761E-09
90	2.75424E-09
100	2.61654E-09
110	2.49745E-09
120	2.39346E-09
130	2.30147E-09
140	2.21893E-09
150	2.14498E-09
160	2.07789E-09
170	2.01836E-09
180	1.96268E-09
190	1.9086E-09
200	1.85827E-09
210	1.81069E-09
220	1.76547E-09
230	1.7215E-09
240	1.67654E-09
250	1.63687E-09
260	1.60403E-09
270	1.58149E-09
280	1.57101E-09
290	1.56681E-09
300	1.56464E-09
310	1.56322E-09
320	1.56218E-09
330	1.5614E-09
340	1.5607E-09
350	1.56015E-09
360	1.55963E-09
370	1.55919E-09
380	1.55879E-09
390	1.55839E-09
400	1.55807E-09
	
#End of manufacturer data file		
