#Measurement file	
#project	CMS tracker
#Sensor Type	PSS
#ID	34342_036_PSS_MAINR
#Scratch PAD	|0000|0000|0000|0000|0011|0110|
#Operator	HPK
#Date	28-Sep-20
#Ingot No.	2984038-504
#Bad strips	0
#AC NG	none
#AC open	none
#AC short	none
#DC high	none
#DC low	none
#DC leaky	none
#Polysilicon Bias Resistance Upper [Mohm]	1.81 
#Polysilicon Bias Resistance Lower [Mohm]	1.60 
#Polysilicon Bias Resistance Average [Mohm]	1.70 
#Depletion voltage [V]	280
#temperature [deg]	25
#humidity [%]	50
	
voltage [V]	current [A]
0	2.852E-09
20	6.525E-08
40	6.854E-08
60	7.071E-08
80	7.22E-08
100	7.358E-08
120	7.506E-08
140	7.583E-08
160	7.664E-08
180	7.534E-08
200	7.514E-08
220	7.615E-08
240	7.82E-08
260	8.092E-08
280	8.281E-08
300	8.392E-08
320	8.475E-08
340	8.545E-08
360	8.609E-08
380	8.667E-08
400	8.722E-08
420	8.775E-08
440	8.826E-08
460	8.876E-08
480	8.924E-08
500	8.971E-08
520	9.018E-08
540	9.063E-08
560	9.109E-08
580	9.153E-08
600	9.198E-08
620	9.242E-08
640	9.286E-08
660	9.33E-08
680	9.373E-08
700	9.416E-08
720	9.461E-08
740	9.506E-08
760	9.551E-08
780	9.595E-08
800	9.641E-08
820	9.687E-08
840	9.734E-08
860	9.782E-08
880	9.831E-08
900	9.88E-08
920	9.931E-08
940	9.984E-08
960	1.0038E-07
980	1.0094E-07
1000	1.0153E-07
	
voltage [V]	capacitance [F]
0	6.15625E-08
10	8.09755E-09
20	5.64278E-09
30	4.71893E-09
40	4.12201E-09
50	3.70484E-09
60	3.39616E-09
70	3.12945E-09
80	2.932E-09
90	2.76895E-09
100	2.63033E-09
110	2.51046E-09
120	2.40566E-09
130	2.31292E-09
140	2.22981E-09
150	2.15537E-09
160	2.08737E-09
170	2.02805E-09
180	1.97035E-09
190	1.91537E-09
200	1.86476E-09
210	1.81723E-09
220	1.77225E-09
230	1.72849E-09
240	1.68386E-09
250	1.64414E-09
260	1.61046E-09
270	1.58556E-09
280	1.57328E-09
290	1.5685E-09
300	1.56615E-09
310	1.5646E-09
320	1.56358E-09
330	1.56272E-09
340	1.56209E-09
350	1.5615E-09
360	1.56095E-09
370	1.56052E-09
380	1.5601E-09
390	1.55972E-09
400	1.55942E-09
	
#End of manufacturer data file		
