Wafer Name:,VQCUMTH

position,ID,result
1,7201,pass
2,7202,pass
3,7203,pass
4,7204,pass
5,7205,pass
6,7206,pass
7,7207,pass
8,7208, FAIL
9,7209,pass
10,7210,pass
11,7211,pass
12,7212, FAIL
13,7213, FAIL
14,7214,pass
15,7215,pass
16,7216,pass
17,7217,pass
18,7218,pass
19,7219,pass
20,7220,pass
21,7221,pass
22,7222,pass
23,7223,pass
24,7224,pass
25,7225,pass
26,7226,pass
27,7227,pass
28,7228,pass
29,7229,pass
30,7230,pass
31,7231,pass
32,7232,pass
33,7233,pass
34,7234,pass
35,7235,pass
36,7236,pass
37,7237,pass
38,7238,pass
39,7239,pass
40,7240, FAIL
41,7241,pass
42,7242,pass
43,7243,pass
44,7244,pass
45,7245,pass
46,7246, FAIL
47,7247,pass
48,7248,pass
49,7249,pass
50,7250,pass
51,7251,pass
52,7252,pass
53,7253,pass
54,7254,pass
55,7255, FAIL
56,7256,pass
57,7257, FAIL
58,7258,pass
59,7259,pass
60,7260,pass
61,7261,pass
62,7262,pass
63,7263, FAIL
64,7264,pass
65,7265,pass
66,7266, FAIL
67,7267,pass
68,7268,pass
69,7269,pass
70,7270,pass
71,7271, FAIL
72,7272,pass
73,7273,pass
74,7274,pass
75,7275,pass
76,7276,pass
77,7277,pass
78,7278, FAIL
79,7279,pass
80,7280,pass
81,7281,pass
82,7282,pass
83,7283,pass
84,7284, FAIL
85,7285, FAIL
86,7286, FAIL
87,7287,pass
88,7288,pass
89,7289,pass
90,7290,pass
91,7291,pass
92,7292,pass
93,7293, FAIL
94,7294,pass
95,7295,pass
96,7296,pass
97,7297,pass
98,7298,pass
99,7299, FAIL
100,7300, FAIL
101,7301, FAIL
102,7302,pass
103,7303,pass
104,7304,pass
105,7305,pass
106,7306,pass
107,7307,pass
108,7308, FAIL
109,7309,pass
110,7310,pass
111,7311,pass
112,7312,pass
113,7313,pass
114,7314, FAIL
115,7315, FAIL
116,7316,pass
117,7317,pass
118,7318,pass
119,7319,pass
120,7320,pass
121,7321,pass
122,7322, FAIL
123,7323,pass
124,7324,pass
125,7325,pass
126,7326,pass
127,7327,pass
128,7328,pass
129,7329,pass
130,7330,pass
131,7331, FAIL
132,7332,pass
133,7333,pass
134,7334,pass
135,7335,pass
136,7336,pass
137,7337, FAIL
138,7338,pass
139,7339,pass
140,7340,pass
141,7341,pass
142,7342,pass
143,7343,pass
144,7344,pass
145,7345,pass
146,7346,pass
147,7347, FAIL
148,7348,pass
149,7349,pass
150,7350,pass
151,7351,pass
152,7352,pass
153,7353,pass
154,7354,pass
155,7355,pass
156,7356,pass
157,7357,pass
158,7358,pass
159,7359,pass
160,7360,pass
161,7361,pass
162,7362, FAIL
163,7363,pass
164,7364,pass
165,7365,pass
166,7366,pass
167,7367,pass
168,7368,pass
169,7369,pass
170,7370,pass
171,7371,pass
172,7372,pass
173,7373,pass
174,7374,pass
175,7375,pass
176,7376,pass
177,7377, FAIL
178,7378,pass
179,7379,pass
180,7380,pass
181,7381, FAIL
182,7382,pass
183,7383,pass
184,7384,pass
185,7385,pass
186,7386,pass
