%CMSwaferCode:CMSchipCode:ChipColumn:ChipRow:Grading:Color:CutVersion:Status:Location:ChipBoardType:BoardNumber:Dose:Sensor:ProbingSite:Iref:IrefTrim:Vref_A:Vref_A_Trim:Vref_D:Vref_D_Trim:Vref_ADC:Vref_ADC_Trim:MON_ADC_Trim:VCAL_HIGH_slope:VCAL_HIGH_offset:VCAL_MED_slope:VCAL_MED_offset:TrefTsensors:Nf1:Nf2:Nf3:Nf4:RD53chipID:Comment:BoardComment:
TSMC_N2WX39-04E1:TSMC_N2WX39-04E1_6_12:6:12:2:green:4:2:CERN:0:0:0:none:CERN:4.004301e-06:8:1.2037:24:1.203155:21:0.9067824:8:0:2.083E-04:2.350E-02:2.097E-04:2.322E-02:0:0:0:0:0:536C:Probed at CERN, Iref = 4.004301e-06 with trim bits 8::No loaded to any board yet
TSMC_N2WX39-04E1:TSMC_N2WX39-04E1_5_10:5:10:1:yellow:4:1:CERN:0:0:0:none:CERN:4.009009e-06:7:1.191699:23:1.199679:18:0.9003719:13:0:2.087E-04:1.369E-02:2.101E-04:1.333E-02:0:0:0:0:0:535A:Probed at CERN, Iref = 4.009009e-06 with trim bits 7::No loaded to any board yet
TSMC_N2WX39-04E1:TSMC_N2WX39-04E1_7_12:7:12:2:green:4:2:CERN:0:0:0:none:CERN:4.0242e-06:8:1.201436:25:1.19621:19:0.9034058:10:0:2.087E-04:1.916E-02:2.102E-04:1.873E-02:0:0:0:0:0:537C:Probed at CERN, Iref = 4.0242e-06 with trim bits 8::No loaded to any board yet
TSMC_N2WX39-04E1:TSMC_N2WX39-04E1_5_11:5:11:1:yellow:4:1:CERN:0:0:0:none:CERN:4.008652e-06:10:1.205313:26:1.192733:15:0.9001895:10:0:2.084E-04:1.561E-02:2.100E-04:1.506E-02:0:0:0:0:0:535B:Probed at CERN, Iref = 4.008652e-06 with trim bits 10::No loaded to any board yet
TSMC_N2WX39-04E1:TSMC_N2WX39-04E1_5_12:5:12:2:green:4:2:CERN:0:0:0:none:CERN:3.967925e-06:6:1.202787:23:1.202095:16:0.8993031:10:0:2.079E-04:1.850E-02:2.095E-04:1.803E-02:0:0:0:0:0:535C:Probed at CERN, Iref = 3.967925e-06 with trim bits 6::No loaded to any board yet
TSMC_N2WX39-04E1:TSMC_N2WX39-04E1_4_12:4:12:1:yellow:4:1:CERN:0:0:0:none:CERN:3.97697e-06:7:1.190436:27:1.192636:19:0.8939091:7:0:2.077E-04:1.611E-02:2.091E-04:1.572E-02:0:0:0:0:0:534C:Probed at CERN, Iref = 3.97697e-06 with trim bits 7::No loaded to any board yet
TSMC_N2WX39-04E1:TSMC_N2WX39-04E1_3_11:3:11:1:yellow:4:1:CERN:0:0:0:none:CERN:3.931919e-06:7:1.207613:28:1.205195:18:0.9018278:9:0:2.093E-04:1.551E-02:2.108E-04:1.520E-02:0:0:0:0:0:533B:Probed at CERN, Iref = 3.931919e-06 with trim bits 7::No loaded to any board yet
TSMC_N2WX39-04E1:TSMC_N2WX39-04E1_9_8:9:8:1:yellow:4:1:CERN:0:0:0:none:CERN:3.957039e-06:10:1.196374:28:1.195408:23:0.901563:13:0:2.102E-04:1.121E-02:2.117E-04:1.083E-02:0:0:0:0:0:5398:Probed at CERN, Iref = 3.957039e-06 with trim bits 10::No loaded to any board yet
TSMC_N2WX39-04E1:TSMC_N2WX39-04E1_4_11:4:11:2:green:4:2:CERN:0:0:0:none:CERN:3.994866e-06:7:1.198284:26:1.193819:17:0.8978718:10:0:2.077E-04:1.542E-02:2.091E-04:1.519E-02:0:0:0:0:0:534B:Probed at CERN, Iref = 3.994866e-06 with trim bits 7::No loaded to any board yet
TSMC_N2WX39-04E1:TSMC_N2WX39-04E1_7_11:7:11:1:yellow:4:1:CERN:0:0:0:none:CERN:4.014917e-06:7:1.202467:27:1.19876:20:0.8969032:11:0:2.078E-04:1.524E-02:2.093E-04:1.472E-02:0:0:0:0:0:537B:Probed at CERN, Iref = 4.014917e-06 with trim bits 7::No loaded to any board yet
TSMC_N2WX39-04E1:TSMC_N2WX39-04E1_8_11:8:11:1:yellow:4:1:CERN:0:0:0:none:CERN:4.037567e-06:5:1.202771:23:1.210152:16:0.8980441:13:0:2.081E-04:1.480E-02:2.096E-04:1.449E-02:0:0:0:0:0:538B:Probed at CERN, Iref = 4.037567e-06 with trim bits 5::No loaded to any board yet
TSMC_N2WX39-04E1:TSMC_N2WX39-04E1_6_11:6:11:1:yellow:4:1:CERN:0:0:0:none:CERN:4.007875e-06:9:1.200496:27:1.202592:16:0.9012483:10:0:2.087E-04:1.708E-02:2.100E-04:1.689E-02:0:0:0:0:0:536B:Probed at CERN, Iref = 4.007875e-06 with trim bits 9::No loaded to any board yet
TSMC_N2WX39-04E1:TSMC_N2WX39-04E1_9_10:9:10:1:yellow:4:1:CERN:0:0:0:none:CERN:3.973989e-06:8:1.210316:24:1.20133:18:0.9013866:11:0:2.093E-04:1.397E-02:2.107E-04:1.351E-02:0:0:0:0:0:539A:Probed at CERN, Iref = 3.973989e-06 with trim bits 8::No loaded to any board yet
TSMC_N2WX39-04E1:TSMC_N2WX39-04E1_8_10:8:10:2:green:4:2:CERN:0:0:0:none:CERN:3.953364e-06:6:1.199881:17:1.205795:18:0.8981741:10:0:2.082E-04:1.471E-02:2.098E-04:1.424E-02:0:0:0:0:0:538A:Probed at CERN, Iref = 3.953364e-06 with trim bits 6::No loaded to any board yet
TSMC_N2WX39-04E1:TSMC_N2WX39-04E1_10_7:10:7:1:yellow:4:1:CERN:0:0:0:none:CERN:3.991472e-06:7:1.190169:27:1.196058:13:0.8983525:12:0:2.091E-04:1.111E-02:2.106E-04:1.064E-02:0:0:0:0:0:53A7:Probed at CERN, Iref = 3.991472e-06 with trim bits 7::No loaded to any board yet
TSMC_N2WX39-04E1:TSMC_N2WX39-04E1_7_10:7:10:1:yellow:4:1:CERN:0:0:0:none:CERN:3.973341e-06:9:1.20494:26:1.192941:19:0.8996427:12:0:2.089E-04:1.433E-02:2.106E-04:1.385E-02:0:0:0:0:0:537A:Probed at CERN, Iref = 3.973341e-06 with trim bits 9::No loaded to any board yet
TSMC_N2WX39-04E1:TSMC_N2WX39-04E1_6_10:6:10:10:red:4:10:CERN:0:0:0:none:CERN:4.00986e-06:11:1.192238:29:1.196734:18:0.8971001:11:0:2.084E-04:1.420E-02:2.099E-04:1.367E-02:0:0:0:0:0:536A:Probed at CERN, Iref = 4.00986e-06 with trim bits 11::No loaded to any board yet
TSMC_N2WX39-04E1:TSMC_N2WX39-04E1_4_10:4:10:1:yellow:4:1:CERN:0:0:0:none:CERN:3.972908e-06:9:1.196734:27:1.197384:20:0.8975683:11:0:2.081E-04:1.319E-02:2.096E-04:1.272E-02:0:0:0:0:0:534A:Probed at CERN, Iref = 3.972908e-06 with trim bits 9::No loaded to any board yet
TSMC_N2WX39-04E1:TSMC_N2WX39-04E1_3_10:3:10:1:yellow:4:1:CERN:0:0:0:none:CERN:4.023073e-06:8:1.194417:27:1.1983:20:0.8999692:10:0:2.095E-04:1.259E-02:2.111E-04:1.193E-02:0:0:0:0:0:533A:Probed at CERN, Iref = 4.023073e-06 with trim bits 8::No loaded to any board yet
TSMC_N2WX39-04E1:TSMC_N2WX39-04E1_2_10:2:10:1:yellow:4:1:CERN:0:0:0:none:CERN:3.929234e-06:7:1.201527:24:1.191449:19:0.898564:11:0:2.098E-04:1.276E-02:2.112E-04:1.235E-02:0:0:0:0:0:532A:Probed at CERN, Iref = 3.929234e-06 with trim bits 7::No loaded to any board yet
TSMC_N2WX39-04E1:TSMC_N2WX39-04E1_2_9:2:9:1:yellow:4:1:CERN:0:0:0:none:CERN:4.054093e-06:10:1.209334:24:1.204933:22:0.8983212:12:0:2.088E-04:1.268E-02:2.102E-04:1.240E-02:0:0:0:0:0:5329:Probed at CERN, Iref = 4.054093e-06 with trim bits 10::No loaded to any board yet
TSMC_N2WX39-04E1:TSMC_N2WX39-04E1_3_9:3:9:2:green:4:2:CERN:0:0:0:none:CERN:4.007625e-06:8:1.202061:25:1.192587:19:0.8975837:13:0:2.086E-04:1.170E-02:2.101E-04:1.131E-02:0:0:0:0:0:5339:Probed at CERN, Iref = 4.007625e-06 with trim bits 8::No loaded to any board yet
TSMC_N2WX39-04E1:TSMC_N2WX39-04E1_4_9:4:9:2:green:4:2:CERN:0:0:0:none:CERN:3.943631e-06:7:1.204166:27:1.212075:16:0.8981416:11:0:2.084E-04:1.238E-02:2.098E-04:1.212E-02:0:0:0:0:0:5349:Probed at CERN, Iref = 3.943631e-06 with trim bits 7::No loaded to any board yet
TSMC_N2WX39-04E1:TSMC_N2WX39-04E1_5_9:5:9:1:yellow:4:1:CERN:0:0:0:none:CERN:4.008745e-06:9:1.202506:25:1.198327:22:0.9008021:12:0:2.090E-04:1.264E-02:2.106E-04:1.219E-02:0:0:0:0:0:5359:Probed at CERN, Iref = 4.008745e-06 with trim bits 9::No loaded to any board yet
TSMC_N2WX39-04E1:TSMC_N2WX39-04E1_6_9:6:9:2:green:4:2:CERN:0:0:0:none:CERN:4.018202e-06:8:1.196136:25:1.199724:19:0.8980107:10:0:2.083E-04:1.259E-02:2.099E-04:1.203E-02:0:0:0:0:0:5369:Probed at CERN, Iref = 4.018202e-06 with trim bits 8::No loaded to any board yet
TSMC_N2WX39-04E1:TSMC_N2WX39-04E1_7_9:7:9:2:green:4:2:CERN:0:0:0:none:CERN:4.019711e-06:11:1.202304:25:1.205664:20:0.8999988:11:0:2.090E-04:1.310E-02:2.106E-04:1.278E-02:0:0:0:0:0:5379:Probed at CERN, Iref = 4.019711e-06 with trim bits 11::No loaded to any board yet
TSMC_N2WX39-04E1:TSMC_N2WX39-04E1_8_9:8:9:1:yellow:4:1:CERN:0:0:0:none:CERN:4.03459e-06:8:1.195899:23:1.203648:22:0.9003788:11:0:2.092E-04:1.232E-02:2.108E-04:1.169E-02:0:0:0:0:0:5389:Probed at CERN, Iref = 4.03459e-06 with trim bits 8::No loaded to any board yet
TSMC_N2WX39-04E1:TSMC_N2WX39-04E1_9_9:9:9:1:yellow:4:1:CERN:0:0:0:none:CERN:4.030084e-06:6:1.19148:23:1.203891:23:0.8967344:11:0:2.086E-04:1.179E-02:2.102E-04:1.129E-02:0:0:0:0:0:5399:Probed at CERN, Iref = 4.030084e-06 with trim bits 6::No loaded to any board yet
TSMC_N2WX39-04E1:TSMC_N2WX39-04E1_10_8:10:8:1:yellow:4:1:CERN:0:0:0:none:CERN:4.034093e-06:8:1.196554:28:1.210552:16:0.9017871:13:0:2.097E-04:1.181E-02:2.113E-04:1.136E-02:0:0:0:0:0:53A8:Probed at CERN, Iref = 4.034093e-06 with trim bits 8::No loaded to any board yet
TSMC_N2WX39-04E1:TSMC_N2WX39-04E1_5_8:5:8:1:yellow:4:1:CERN:0:0:0:none:CERN:4.037319e-06:9:1.198321:25:1.195325:23:0.8977927:11:0:2.087E-04:1.163E-02:2.101E-04:1.120E-02:0:0:0:0:0:5358:Probed at CERN, Iref = 4.037319e-06 with trim bits 9::No loaded to any board yet
TSMC_N2WX39-04E1:TSMC_N2WX39-04E1_10_9:10:9:10:red:4:10:CERN:0:0:0:none:CERN:0:0:0:0:0:0:0:0:0:0.000E+00:0.000E+00:0.000E+00:0.000E+00:0:0:0:0:0:53A9:Probed at CERN, Iref = 0 with trim bits 0::No loaded to any board yet
TSMC_N2WX39-04E1:TSMC_N2WX39-04E1_8_8:8:8:1:yellow:4:1:CERN:0:0:0:none:CERN:3.976202e-06:8:1.194721:29:1.204123:23:0.8995033:12:0:2.091E-04:1.194E-02:2.108E-04:1.148E-02:0:0:0:0:0:5388:Probed at CERN, Iref = 3.976202e-06 with trim bits 8::No loaded to any board yet
TSMC_N2WX39-04E1:TSMC_N2WX39-04E1_7_8:7:8:2:green:4:2:CERN:0:0:0:none:CERN:4.004853e-06:8:1.203361:24:1.197885:21:0.9001747:13:0:2.091E-04:1.171E-02:2.107E-04:1.123E-02:0:0:0:0:0:5378:Probed at CERN, Iref = 4.004853e-06 with trim bits 8::No loaded to any board yet
TSMC_N2WX39-04E1:TSMC_N2WX39-04E1_2_8:2:8:1:yellow:4:1:CERN:0:0:0:none:CERN:4.011232e-06:8:1.195812:26:1.199384:20:0.902577:10:0:2.101E-04:1.109E-02:2.116E-04:1.065E-02:0:0:0:0:0:5328:Probed at CERN, Iref = 4.011232e-06 with trim bits 8::No loaded to any board yet
TSMC_N2WX39-04E1:TSMC_N2WX39-04E1_6_8:6:8:1:yellow:4:1:CERN:0:0:0:none:CERN:4.054985e-06:10:1.202525:25:1.199861:17:0.9025315:8:0:2.097E-04:1.245E-02:2.112E-04:1.211E-02:0:0:0:0:0:5368:Probed at CERN, Iref = 4.054985e-06 with trim bits 10::No loaded to any board yet
TSMC_N2WX39-04E1:TSMC_N2WX39-04E1_8_7:8:7:10:red:4:10:CERN:0:0:0:none:CERN:0:0:0:0:0:0:0:0:0:0.000E+00:0.000E+00:0.000E+00:0.000E+00:0:0:0:0:0:5387:Probed at CERN, Iref = 0 with trim bits 0::No loaded to any board yet
TSMC_N2WX39-04E1:TSMC_N2WX39-04E1_4_8:4:8:2:green:4:2:CERN:0:0:0:none:CERN:4.032074e-06:9:1.196935:24:1.202253:21:0.8954052:11:0:2.085E-04:1.132E-02:2.099E-04:1.090E-02:0:0:0:0:0:5348:Probed at CERN, Iref = 4.032074e-06 with trim bits 9::No loaded to any board yet
TSMC_N2WX39-04E1:TSMC_N2WX39-04E1_3_8:3:8:2:green:4:2:CERN:0:0:0:none:CERN:4.040211e-06:9:1.196657:25:1.197939:25:0.9000712:12:0:2.096E-04:1.051E-02:2.111E-04:1.011E-02:0:0:0:0:0:5338:Probed at CERN, Iref = 4.040211e-06 with trim bits 9::No loaded to any board yet
TSMC_N2WX39-04E1:TSMC_N2WX39-04E1_1_8:1:8:2:green:4:2:CERN:0:0:0:none:CERN:4.060095e-06:6:1.199086:20:1.202683:23:0.8966938:9:0:2.093E-04:1.163E-02:2.108E-04:1.110E-02:0:0:0:0:0:5318:Probed at CERN, Iref = 4.060095e-06 with trim bits 6::No loaded to any board yet
TSMC_N2WX39-04E1:TSMC_N2WX39-04E1_1_7:1:7:1:yellow:4:1:CERN:0:0:0:none:CERN:4.00258e-06:8:1.19825:23:1.200225:21:0.9011511:8:0:2.106E-04:1.063E-02:2.120E-04:1.013E-02:0:0:0:0:0:5317:Probed at CERN, Iref = 4.00258e-06 with trim bits 8::No loaded to any board yet
TSMC_N2WX39-04E1:TSMC_N2WX39-04E1_2_7:2:7:10:red:4:10:CERN:0:0:0:none:CERN:4.021374e-06:10:1.196007:28:1.191543:19:0.9000813:12:0:2.097E-04:1.146E-02:2.110E-04:1.110E-02:0:0:0:0:0:5327:Probed at CERN, Iref = 4.021374e-06 with trim bits 10::No loaded to any board yet
TSMC_N2WX39-04E1:TSMC_N2WX39-04E1_3_7:3:7:1:yellow:4:1:CERN:0:0:0:none:CERN:3.996083e-06:8:1.194013:27:1.187566:23:0.8961414:13:0:2.083E-04:1.176E-02:2.097E-04:1.145E-02:0:0:0:0:0:5337:Probed at CERN, Iref = 3.996083e-06 with trim bits 8::No loaded to any board yet
TSMC_N2WX39-04E1:TSMC_N2WX39-04E1_4_7:4:7:1:yellow:4:1:CERN:0:0:0:none:CERN:3.997689e-06:8:1.202908:23:1.199197:23:0.898949:12:0:2.091E-04:1.159E-02:2.106E-04:1.098E-02:0:0:0:0:0:5347:Probed at CERN, Iref = 3.997689e-06 with trim bits 8::No loaded to any board yet
TSMC_N2WX39-04E1:TSMC_N2WX39-04E1_5_7:5:7:1:yellow:4:1:CERN:0:0:0:none:CERN:4.031814e-06:9:1.201584:27:1.187402:23:0.8992972:12:0:2.092E-04:1.084E-02:2.107E-04:1.041E-02:0:0:0:0:0:5357:Probed at CERN, Iref = 4.031814e-06 with trim bits 9::No loaded to any board yet
TSMC_N2WX39-04E1:TSMC_N2WX39-04E1_7_4:7:4:1:yellow:4:1:CERN:0:0:0:none:CERN:4.03212e-06:9:1.210725:28:1.196115:15:0.9017214:14:0:2.095E-04:1.124E-02:2.111E-04:1.081E-02:0:0:0:0:0:5374:Probed at CERN, Iref = 4.03212e-06 with trim bits 9::No loaded to any board yet
TSMC_N2WX39-04E1:TSMC_N2WX39-04E1_6_7:6:7:10:red:4:10:CERN:0:0:0:none:CERN:3.982657e-06:8:1.196132:26:1.1982:19:0.9013544:12:0:2.087E-04:1.333E-02:2.102E-04:1.291E-02:0:0:0:0:0:5367:Probed at CERN, Iref = 3.982657e-06 with trim bits 8::No loaded to any board yet
TSMC_N2WX39-04E1:TSMC_N2WX39-04E1_5_5:5:5:1:yellow:4:1:CERN:0:0:0:none:CERN:4.002677e-06:7:1.197096:25:1.200769:13:0.898637:12:0:2.086E-04:1.130E-02:2.101E-04:1.099E-02:0:0:0:0:0:5355:Probed at CERN, Iref = 4.002677e-06 with trim bits 7::No loaded to any board yet
TSMC_N2WX39-04E1:TSMC_N2WX39-04E1_7_7:7:7:2:green:4:2:CERN:0:0:0:none:CERN:3.972555e-06:9:1.204332:20:1.208343:20:0.8991649:12:0:2.085E-04:1.299E-02:2.101E-04:1.243E-02:0:0:0:0:0:5377:Probed at CERN, Iref = 3.972555e-06 with trim bits 9::No loaded to any board yet
TSMC_N2WX39-04E1:TSMC_N2WX39-04E1_9_7:9:7:1:yellow:4:1:CERN:0:0:0:none:CERN:4.027934e-06:8:1.198815:27:1.194736:21:0.9004167:12:0:2.091E-04:1.208E-02:2.107E-04:1.160E-02:0:0:0:0:0:5397:Probed at CERN, Iref = 4.027934e-06 with trim bits 8::No loaded to any board yet
TSMC_N2WX39-04E1:TSMC_N2WX39-04E1_10_6:10:6:1:yellow:4:1:CERN:0:0:0:none:CERN:3.957254e-06:7:1.196678:19:1.203836:20:0.8994412:13:0:2.094E-04:1.208E-02:2.109E-04:1.168E-02:0:0:0:0:0:53A6:Probed at CERN, Iref = 3.957254e-06 with trim bits 7::No loaded to any board yet
TSMC_N2WX39-04E1:TSMC_N2WX39-04E1_9_6:9:6:1:yellow:4:1:CERN:0:0:0:none:CERN:3.973129e-06:6:1.191414:27:1.20175:27:0.8949105:11:0:2.080E-04:1.153E-02:2.094E-04:1.117E-02:0:0:0:0:0:5396:Probed at CERN, Iref = 3.973129e-06 with trim bits 6::No loaded to any board yet
TSMC_N2WX39-04E1:TSMC_N2WX39-04E1_8_6:8:6:2:green:4:2:CERN:0:0:0:none:CERN:3.977995e-06:7:1.200638:24:1.197614:21:0.9038289:12:0:2.105E-04:1.128E-02:2.121E-04:1.081E-02:0:0:0:0:0:5386:Probed at CERN, Iref = 3.977995e-06 with trim bits 7::No loaded to any board yet
TSMC_N2WX39-04E1:TSMC_N2WX39-04E1_6_6:6:6:2:green:4:2:CERN:0:0:0:none:CERN:3.989232e-06:9:1.1989:20:1.201001:22:0.8979892:11:0:2.092E-04:1.147E-02:2.109E-04:1.093E-02:0:0:0:0:0:5366:Probed at CERN, Iref = 3.989232e-06 with trim bits 9::No loaded to any board yet
TSMC_N2WX39-04E1:TSMC_N2WX39-04E1_5_6:5:6:2:green:4:2:CERN:0:0:0:none:CERN:3.988339e-06:9:1.203934:26:1.195404:23:0.9010187:12:0:2.094E-04:1.143E-02:2.109E-04:1.103E-02:0:0:0:0:0:5356:Probed at CERN, Iref = 3.988339e-06 with trim bits 9::No loaded to any board yet
TSMC_N2WX39-04E1:TSMC_N2WX39-04E1_4_6:4:6:10:red:4:10:CERN:0:0:0:none:CERN:4.056189e-06:7:1.201954:26:1.204304:22:0.9017283:13:0:2.102E-04:1.074E-02:2.118E-04:1.047E-02:0:0:0:0:0:5346:Probed at CERN, Iref = 4.056189e-06 with trim bits 7::No loaded to any board yet
TSMC_N2WX39-04E1:TSMC_N2WX39-04E1_3_6:3:6:1:yellow:4:1:CERN:0:0:0:none:CERN:3.976569e-06:9:1.198642:22:1.20319:19:0.9005713:13:0:2.102E-04:1.052E-02:2.118E-04:1.002E-02:0:0:0:0:0:5336:Probed at CERN, Iref = 3.976569e-06 with trim bits 9::No loaded to any board yet
TSMC_N2WX39-04E1:TSMC_N2WX39-04E1_2_6:2:6:2:green:4:2:CERN:0:0:0:none:CERN:3.995366e-06:8:1.19799:22:1.193508:23:0.9035942:14:0:2.106E-04:1.088E-02:2.120E-04:1.043E-02:0:0:0:0:0:5326:Probed at CERN, Iref = 3.995366e-06 with trim bits 8::No loaded to any board yet
TSMC_N2WX39-04E1:TSMC_N2WX39-04E1_4_3:4:3:2:green:4:2:CERN:0:0:0:none:CERN:3.943904e-06:8:1.201506:21:1.195299:19:0.8981185:13:0:2.095E-04:1.015E-02:2.109E-04:9.945E-03:0:0:0:0:0:5343:Probed at CERN, Iref = 3.943904e-06 with trim bits 8::No loaded to any board yet
TSMC_N2WX39-04E1:TSMC_N2WX39-04E1_3_4:3:4:2:green:4:2:CERN:0:0:0:none:CERN:4.015331e-06:9:1.197401:25:1.201351:24:0.8988655:10:0:2.096E-04:1.017E-02:2.112E-04:9.670E-03:0:0:0:0:0:5334:Probed at CERN, Iref = 4.015331e-06 with trim bits 9::No loaded to any board yet
TSMC_N2WX39-04E1:TSMC_N2WX39-04E1_7_6:7:6:2:green:4:2:CERN:0:0:0:none:CERN:4.0175e-06:7:1.211279:24:1.203484:21:0.9017471:11:0:2.091E-04:1.173E-02:2.106E-04:1.115E-02:0:0:0:0:0:5376:Probed at CERN, Iref = 4.0175e-06 with trim bits 7::No loaded to any board yet
TSMC_N2WX39-04E1:TSMC_N2WX39-04E1_2_5:2:5:2:green:4:2:CERN:0:0:0:none:CERN:3.94505e-06:9:1.199745:27:1.20125:17:0.8979329:11:0:2.098E-04:1.093E-02:2.112E-04:1.064E-02:0:0:0:0:0:5325:Probed at CERN, Iref = 3.94505e-06 with trim bits 9::No loaded to any board yet
TSMC_N2WX39-04E1:TSMC_N2WX39-04E1_3_5:3:5:1:yellow:4:1:CERN:0:0:0:none:CERN:3.996607e-06:8:1.201773:22:1.202378:19:0.8991551:12:0:2.091E-04:1.080E-02:2.106E-04:1.043E-02:0:0:0:0:0:5335:Probed at CERN, Iref = 3.996607e-06 with trim bits 8::No loaded to any board yet
TSMC_N2WX39-04E1:TSMC_N2WX39-04E1_4_5:4:5:2:green:4:2:CERN:0:0:0:none:CERN:4.059371e-06:9:1.201838:23:1.204105:20:0.9051622:12:0:2.110E-04:1.117E-02:2.124E-04:1.085E-02:0:0:0:0:0:5345:Probed at CERN, Iref = 4.059371e-06 with trim bits 9::No loaded to any board yet
TSMC_N2WX39-04E1:TSMC_N2WX39-04E1_8_4:8:4:2:green:4:2:CERN:0:0:0:none:CERN:3.986437e-06:10:1.192402:25:1.194353:21:0.8965912:13:0:2.084E-04:1.101E-02:2.099E-04:1.073E-02:0:0:0:0:0:5384:Probed at CERN, Iref = 3.986437e-06 with trim bits 10::No loaded to any board yet
TSMC_N2WX39-04E1:TSMC_N2WX39-04E1_1_6:1:6:1:yellow:4:1:CERN:0:0:0:none:CERN:3.988807e-06:9:1.204091:21:1.198686:15:0.8992786:12:0:2.100E-04:1.117E-02:2.113E-04:1.087E-02:0:0:0:0:0:5316:Probed at CERN, Iref = 3.988807e-06 with trim bits 9::No loaded to any board yet
TSMC_N2WX39-04E1:TSMC_N2WX39-04E1_6_5:6:5:2:green:4:2:CERN:0:0:0:none:CERN:3.9629e-06:7:1.197432:25:1.197968:20:0.9005567:13:0:2.092E-04:1.163E-02:2.107E-04:1.120E-02:0:0:0:0:0:5365:Probed at CERN, Iref = 3.9629e-06 with trim bits 7::No loaded to any board yet
TSMC_N2WX39-04E1:TSMC_N2WX39-04E1_8_5:8:5:2:green:4:2:CERN:0:0:0:none:CERN:4.038266e-06:9:1.194586:21:1.192051:19:0.8962213:11:0:2.084E-04:1.106E-02:2.099E-04:1.060E-02:0:0:0:0:0:5385:Probed at CERN, Iref = 4.038266e-06 with trim bits 9::No loaded to any board yet
TSMC_N2WX39-04E1:TSMC_N2WX39-04E1_7_5:7:5:2:green:4:2:CERN:0:0:0:none:CERN:3.997181e-06:6:1.197681:23:1.210564:16:0.9038034:12:0:2.101E-04:1.135E-02:2.117E-04:1.093E-02:0:0:0:0:0:5375:Probed at CERN, Iref = 3.997181e-06 with trim bits 6::No loaded to any board yet
TSMC_N2WX39-04E1:TSMC_N2WX39-04E1_10_5:10:5:1:yellow:4:1:CERN:0:0:0:none:CERN:4.053155e-06:9:1.202404:26:1.200957:16:0.9027326:12:0:2.101E-04:1.059E-02:2.117E-04:1.011E-02:0:0:0:0:0:53A5:Probed at CERN, Iref = 4.053155e-06 with trim bits 9::No loaded to any board yet
TSMC_N2WX39-04E1:TSMC_N2WX39-04E1_9_5:9:5:2:green:4:2:CERN:0:0:0:none:CERN:4.05116e-06:8:1.194518:23:1.197451:20:0.8973267:13:0:2.085E-04:1.077E-02:2.099E-04:1.041E-02:0:0:0:0:0:5395:Probed at CERN, Iref = 4.05116e-06 with trim bits 8::No loaded to any board yet
TSMC_N2WX39-04E1:TSMC_N2WX39-04E1_9_4:9:4:1:yellow:4:1:CERN:0:0:0:none:CERN:4.051084e-06:9:1.198082:25:1.209619:24:0.8964594:13:0:2.090E-04:1.101E-02:2.104E-04:1.062E-02:0:0:0:0:0:5394:Probed at CERN, Iref = 4.051084e-06 with trim bits 9::No loaded to any board yet
TSMC_N2WX39-04E1:TSMC_N2WX39-04E1_8_2:8:2:2:green:4:2:CERN:0:0:0:none:CERN:3.953108e-06:8:1.207523:24:1.202997:23:0.8995278:12:0:2.096E-04:1.152E-02:2.112E-04:1.113E-02:0:0:0:0:0:5382:Probed at CERN, Iref = 3.953108e-06 with trim bits 8::No loaded to any board yet
TSMC_N2WX39-04E1:TSMC_N2WX39-04E1_3_3:3:3:2:green:4:2:CERN:0:0:0:none:CERN:3.987243e-06:7:1.201934:22:1.198698:19:0.8988732:13:0:2.097E-04:1.068E-02:2.113E-04:1.030E-02:0:0:0:0:0:5333:Probed at CERN, Iref = 3.987243e-06 with trim bits 7::No loaded to any board yet
TSMC_N2WX39-04E1:TSMC_N2WX39-04E1_6_4:6:4:2:green:4:2:CERN:0:0:0:none:CERN:4.028956e-06:8:1.202757:25:1.192968:21:0.8983282:12:0:2.090E-04:1.168E-02:2.105E-04:1.124E-02:0:0:0:0:0:5364:Probed at CERN, Iref = 4.028956e-06 with trim bits 8::No loaded to any board yet
TSMC_N2WX39-04E1:TSMC_N2WX39-04E1_5_4:5:4:1:yellow:4:1:CERN:0:0:0:none:CERN:4.055284e-06:7:1.208822:24:1.20288:22:0.8965597:11:0:2.090E-04:1.071E-02:2.105E-04:1.024E-02:0:0:0:0:0:5354:Probed at CERN, Iref = 4.055284e-06 with trim bits 7::No loaded to any board yet
TSMC_N2WX39-04E1:TSMC_N2WX39-04E1_7_3:7:3:1:yellow:4:1:CERN:0:0:0:none:CERN:3.944995e-06:8:1.19166:27:1.201043:19:0.901544:12:0:2.102E-04:1.116E-02:2.117E-04:1.075E-02:0:0:0:0:0:5373:Probed at CERN, Iref = 3.944995e-06 with trim bits 8::No loaded to any board yet
TSMC_N2WX39-04E1:TSMC_N2WX39-04E1_2_3:2:3:10:red:4:10:CERN:0:0:0:none:CERN:0:0:0:0:0:0:0:0:0:0.000E+00:0.000E+00:0.000E+00:0.000E+00:0:0:0:0:0:5323:Probed at CERN, Iref = 0 with trim bits 0::No loaded to any board yet
TSMC_N2WX39-04E1:TSMC_N2WX39-04E1_8_3:8:3:2:green:4:2:CERN:0:0:0:none:CERN:4.026477e-06:10:1.197218:24:1.205642:20:0.9023705:12:0:2.105E-04:1.117E-02:2.119E-04:1.085E-02:0:0:0:0:0:5383:Probed at CERN, Iref = 4.026477e-06 with trim bits 10::No loaded to any board yet
TSMC_N2WX39-04E1:TSMC_N2WX39-04E1_5_1:5:1:1:yellow:4:1:CERN:0:0:0:none:CERN:4.031647e-06:6:1.203019:24:1.197037:17:0.9068378:16:0:2.114E-04:1.207E-02:2.128E-04:1.161E-02:0:0:0:0:0:5351:Probed at CERN, Iref = 4.031647e-06 with trim bits 6::No loaded to any board yet
TSMC_N2WX39-04E1:TSMC_N2WX39-04E1_2_4:2:4:1:yellow:4:1:CERN:0:0:0:none:CERN:4.034447e-06:9:1.207254:28:1.193967:19:0.8981354:14:0:2.097E-04:1.044E-02:2.113E-04:1.010E-02:0:0:0:0:0:5324:Probed at CERN, Iref = 4.034447e-06 with trim bits 9::No loaded to any board yet
TSMC_N2WX39-04E1:TSMC_N2WX39-04E1_6_3:6:3:1:yellow:4:1:CERN:0:0:0:none:CERN:3.989324e-06:8:1.203507:25:1.196188:21:0.9020543:11:0:2.104E-04:1.123E-02:2.119E-04:1.071E-02:0:0:0:0:0:5363:Probed at CERN, Iref = 3.989324e-06 with trim bits 8::No loaded to any board yet
TSMC_N2WX39-04E1:TSMC_N2WX39-04E1_5_3:5:3:1:yellow:4:1:CERN:0:0:0:none:CERN:3.988446e-06:8:1.20935:24:1.20234:21:0.8961156:11:0:2.086E-04:1.120E-02:2.099E-04:1.080E-02:0:0:0:0:0:5353:Probed at CERN, Iref = 3.988446e-06 with trim bits 8::No loaded to any board yet
TSMC_N2WX39-04E1:TSMC_N2WX39-04E1_7_2:7:2:2:green:4:2:CERN:0:0:0:none:CERN:3.998819e-06:9:1.203038:24:1.198697:21:0.899302:13:0:2.094E-04:1.132E-02:2.110E-04:1.103E-02:0:0:0:0:0:5372:Probed at CERN, Iref = 3.998819e-06 with trim bits 9::No loaded to any board yet
TSMC_N2WX39-04E1:TSMC_N2WX39-04E1_6_2:6:2:2:green:4:2:CERN:0:0:0:none:CERN:3.996003e-06:7:1.198621:23:1.191443:23:0.9038028:12:0:2.106E-04:1.156E-02:2.121E-04:1.107E-02:0:0:0:0:0:5362:Probed at CERN, Iref = 3.996003e-06 with trim bits 7::No loaded to any board yet
TSMC_N2WX39-04E1:TSMC_N2WX39-04E1_5_2:5:2:1:yellow:4:1:CERN:0:0:0:none:CERN:4.047507e-06:10:1.204185:27:1.206604:22:0.9016396:14:0:2.098E-04:1.135E-02:2.113E-04:1.085E-02:0:0:0:0:0:5352:Probed at CERN, Iref = 4.047507e-06 with trim bits 10::No loaded to any board yet
TSMC_N2WX39-04E1:TSMC_N2WX39-04E1_9_3:9:3:2:green:4:2:CERN:0:0:0:none:CERN:3.969914e-06:6:1.20215:24:1.201462:20:0.8982104:11:0:2.093E-04:1.063E-02:2.109E-04:1.018E-02:0:0:0:0:0:5393:Probed at CERN, Iref = 3.969914e-06 with trim bits 6::No loaded to any board yet
TSMC_N2WX39-04E1:TSMC_N2WX39-04E1_4_2:4:2:2:green:4:2:CERN:0:0:0:none:CERN:3.998694e-06:8:1.196078:25:1.207234:20:0.8995062:13:0:2.095E-04:1.168E-02:2.110E-04:1.110E-02:0:0:0:0:0:5342:Probed at CERN, Iref = 3.998694e-06 with trim bits 8::No loaded to any board yet
TSMC_N2WX39-04E1:TSMC_N2WX39-04E1_6_1:6:1:2:green:4:2:CERN:0:0:0:none:CERN:4.010036e-06:8:1.204795:25:1.198382:21:0.897827:13:0:2.096E-04:1.081E-02:2.111E-04:1.038E-02:0:0:0:0:0:5361:Probed at CERN, Iref = 4.010036e-06 with trim bits 8::No loaded to any board yet
TSMC_N2WX39-04E1:TSMC_N2WX39-04E1_4_4:4:4:1:yellow:4:1:CERN:0:0:0:none:CERN:4.006027e-06:8:1.203573:25:1.194286:23:0.9022179:12:0:2.103E-04:1.063E-02:2.117E-04:1.046E-02:0:0:0:0:0:5344:Probed at CERN, Iref = 4.006027e-06 with trim bits 8:No loaded to any board yet
