%CMSwaferCode:CMSchipCode:ChipColumn:ChipRow:Grading:Color:CutVersion:Status:Location:ChipBoardType:BoardNumber:Dose:Sensor:ProbingSite:Iref:IrefTrim:Vref_A:Vref_A_Trim:Vref_D:Vref_D_Trim:Vref_ADC:Vref_ADC_Trim:MON_ADC_Trim:VCAL_HIGH_slope:VCAL_HIGH_offset:VCAL_MED_slope:VCAL_MED_offset:TrefTsensors:Nf1:Nf2:Nf3:Nf4:RD53chipID:Comment:BoardComment:
TSMC_N2WX39-06C7:TSMC_N2WX39-06C7_8_5:8:5:2:green:4:2:CERN:0:0:0:none:CERN:3.990911e-06:9:1.191484:23:1.202234:19:0.8985568:11:0:2.092E-04:1.085E-02:2.108E-04:1.029E-02:0:0:0:0:0:5585:Probed at CERN, Iref = 3.990911e-06 with trim bits 9:No loaded to any board yet
TSMC_N2WX39-06C7:TSMC_N2WX39-06C7_9_5:9:5:2:green:4:2:CERN:0:0:0:none:CERN:3.949702e-06:8:1.192418:25:1.195315:17:0.8998759:12:0:2.093E-04:1.118E-02:2.109E-04:1.067E-02:0:0:0:0:0:5595:Probed at CERN, Iref = 3.949702e-06 with trim bits 8:No loaded to any board yet
TSMC_N2WX39-06C7:TSMC_N2WX39-06C7_9_10:9:10:1:yellow:4:1:CERN:0:0:0:none:CERN:3.972798e-06:8:1.190791:27:1.19666:11:0.9045016:12:0:2.097E-04:1.520E-02:2.112E-04:1.464E-02:0:0:0:0:0:559A:Probed at CERN, Iref = 3.972798e-06 with trim bits 8:No loaded to any board yet
TSMC_N2WX39-06C7:TSMC_N2WX39-06C7_8_10:8:10:2:green:4:2:CERN:0:0:0:none:CERN:3.952956e-06:7:1.204072:20:1.20083:19:0.8977837:11:0:2.084E-04:1.401E-02:2.098E-04:1.339E-02:0:0:0:0:0:558A:Probed at CERN, Iref = 3.952956e-06 with trim bits 7:No loaded to any board yet
TSMC_N2WX39-06C7:TSMC_N2WX39-06C7_7_10:7:10:1:yellow:4:1:CERN:0:0:0:none:CERN:3.964016e-06:5:1.209259:24:1.205944:28:0.8957267:11:0:2.075E-04:1.448E-02:2.090E-04:1.402E-02:0:0:0:0:0:557A:Probed at CERN, Iref = 3.964016e-06 with trim bits 5:No loaded to any board yet
TSMC_N2WX39-06C7:TSMC_N2WX39-06C7_4_3:4:3:1:yellow:4:1:CERN:0:0:0:none:CERN:4.03635e-06:7:1.201916:27:1.205291:18:0.8995306:13:0:2.092E-04:1.140E-02:2.107E-04:1.102E-02:0:0:0:0:0:5543:Probed at CERN, Iref = 4.03635e-06 with trim bits 7:No loaded to any board yet
TSMC_N2WX39-06C7:TSMC_N2WX39-06C7_3_10:3:10:1:yellow:4:1:CERN:0:0:0:none:CERN:4.015934e-06:10:1.201114:20:1.19892:17:0.9015269:12:0:2.091E-04:1.375E-02:2.107E-04:1.319E-02:0:0:0:0:0:553A:Probed at CERN, Iref = 4.015934e-06 with trim bits 10:No loaded to any board yet
TSMC_N2WX39-06C7:TSMC_N2WX39-06C7_2_10:2:10:1:yellow:4:1:CERN:0:0:0:none:CERN:4.014568e-06:10:1.199282:29:1.204632:20:0.9007086:9:0:2.091E-04:1.468E-02:2.106E-04:1.422E-02:0:0:0:0:0:552A:Probed at CERN, Iref = 4.014568e-06 with trim bits 10:No loaded to any board yet
TSMC_N2WX39-06C7:TSMC_N2WX39-06C7_2_9:2:9:2:green:4:2:CERN:0:0:0:none:CERN:3.966653e-06:11:1.204548:24:1.207588:16:0.8990008:9:0:2.087E-04:1.398E-02:2.101E-04:1.367E-02:0:0:0:0:0:5529:Probed at CERN, Iref = 3.966653e-06 with trim bits 11:No loaded to any board yet
TSMC_N2WX39-06C7:TSMC_N2WX39-06C7_6_9:6:9:2:green:4:2:CERN:0:0:0:none:CERN:4.01952e-06:8:1.200351:22:1.20631:16:0.8950481:11:0:2.077E-04:1.318E-02:2.092E-04:1.275E-02:0:0:0:0:0:5569:Probed at CERN, Iref = 4.01952e-06 with trim bits 8:No loaded to any board yet
TSMC_N2WX39-06C7:TSMC_N2WX39-06C7_7_9:7:9:2:green:4:2:CERN:0:0:0:none:CERN:4.036405e-06:5:1.205601:22:1.201095:17:0.9007884:12:0:2.093E-04:1.294E-02:2.109E-04:1.242E-02:0:0:0:0:0:5579:Probed at CERN, Iref = 4.036405e-06 with trim bits 5:No loaded to any board yet
TSMC_N2WX39-06C7:TSMC_N2WX39-06C7_8_9:8:9:1:yellow:4:1:CERN:0:0:0:none:CERN:3.947463e-06:8:1.207022:26:1.200232:18:0.8999948:10:0:2.090E-04:1.245E-02:2.106E-04:1.193E-02:0:0:0:0:0:5589:Probed at CERN, Iref = 3.947463e-06 with trim bits 8:No loaded to any board yet
TSMC_N2WX39-06C7:TSMC_N2WX39-06C7_8_8:8:8:1:yellow:4:1:CERN:0:0:0:none:CERN:3.942965e-06:11:1.196279:30:1.198312:17:0.9012361:12:0:2.095E-04:1.271E-02:2.111E-04:1.209E-02:0:0:0:0:0:5588:Probed at CERN, Iref = 3.942965e-06 with trim bits 11:No loaded to any board yet
TSMC_N2WX39-06C7:TSMC_N2WX39-06C7_7_8:7:8:1:yellow:4:1:CERN:0:0:0:none:CERN:3.979794e-06:10:1.197991:27:1.198849:17:0.8985876:9:0:2.084E-04:1.294E-02:2.098E-04:1.266E-02:0:0:0:0:0:5578:Probed at CERN, Iref = 3.979794e-06 with trim bits 10:No loaded to any board yet
TSMC_N2WX39-06C7:TSMC_N2WX39-06C7_6_8:6:8:1:yellow:4:1:CERN:0:0:0:none:CERN:3.940041e-06:9:1.203388:25:1.197038:20:0.8998451:11:0:2.085E-04:1.305E-02:2.101E-04:1.243E-02:0:0:0:0:0:5568:Probed at CERN, Iref = 3.940041e-06 with trim bits 9:No loaded to any board yet
TSMC_N2WX39-06C7:TSMC_N2WX39-06C7_2_8:2:8:1:yellow:4:1:CERN:0:0:0:none:CERN:3.94851e-06:9:1.188224:27:1.202841:23:0.8976953:13:0:2.089E-04:1.194E-02:2.104E-04:1.152E-02:0:0:0:0:0:5528:Probed at CERN, Iref = 3.94851e-06 with trim bits 9:No loaded to any board yet
TSMC_N2WX39-06C7:TSMC_N2WX39-06C7_1_8:1:8:2:green:4:2:CERN:0:0:0:none:CERN:3.960896e-06:8:1.197255:16:1.20093:23:0.8983924:8:0:2.090E-04:1.327E-02:2.107E-04:1.239E-02:0:0:0:0:0:5518:Probed at CERN, Iref = 3.960896e-06 with trim bits 8:No loaded to any board yet
TSMC_N2WX39-06C7:TSMC_N2WX39-06C7_1_7:1:7:1:yellow:4:1:CERN:0:0:0:none:CERN:3.948149e-06:8:1.206784:20:1.198828:23:0.8980364:10:0:2.099E-04:1.093E-02:2.113E-04:1.075E-02:0:0:0:0:0:5517:Probed at CERN, Iref = 3.948149e-06 with trim bits 8:No loaded to any board yet
TSMC_N2WX39-06C7:TSMC_N2WX39-06C7_5_7:5:7:1:yellow:4:1:CERN:0:0:0:none:CERN:4.018812e-06:9:1.194895:25:1.197513:22:0.9017226:13:0:2.101E-04:1.151E-02:2.116E-04:1.110E-02:0:0:0:0:0:5557:Probed at CERN, Iref = 4.018812e-06 with trim bits 9:No loaded to any board yet
TSMC_N2WX39-06C7:TSMC_N2WX39-06C7_6_7:6:7:2:green:4:2:CERN:0:0:0:none:CERN:3.978922e-06:8:1.206243:26:1.202126:15:0.8995984:12:0:2.079E-04:1.349E-02:2.095E-04:1.306E-02:0:0:0:0:0:5567:Probed at CERN, Iref = 3.978922e-06 with trim bits 8:No loaded to any board yet
TSMC_N2WX39-06C7:TSMC_N2WX39-06C7_7_7:7:7:2:green:4:2:CERN:0:0:0:none:CERN:4.032116e-06:7:1.199148:18:1.189522:15:0.9031754:12:0:2.096E-04:1.330E-02:2.111E-04:1.293E-02:0:0:0:0:0:5577:Probed at CERN, Iref = 4.032116e-06 with trim bits 7:No loaded to any board yet
TSMC_N2WX39-06C7:TSMC_N2WX39-06C7_10_6:10:6:1:yellow:4:1:CERN:0:0:0:none:CERN:4.057909e-06:8:1.197321:25:1.205116:20:0.8983282:13:0:2.091E-04:1.275E-02:2.106E-04:1.245E-02:0:0:0:0:0:55A6:Probed at CERN, Iref = 4.057909e-06 with trim bits 8:No loaded to any board yet
TSMC_N2WX39-06C7:TSMC_N2WX39-06C7_9_6:9:6:1:yellow:4:1:CERN:0:0:0:none:CERN:4.055353e-06:8:1.2113:24:1.201086:13:0.9017922:11:0:2.097E-04:1.178E-02:2.111E-04:1.142E-02:0:0:0:0:0:5596:Probed at CERN, Iref = 4.055353e-06 with trim bits 8:No loaded to any board yet
TSMC_N2WX39-06C7:TSMC_N2WX39-06C7_8_6:8:6:2:green:4:2:CERN:0:0:0:none:CERN:4.021932e-06:9:1.204131:25:1.194044:23:0.8995535:13:0:2.087E-04:1.282E-02:2.103E-04:1.224E-02:0:0:0:0:0:5586:Probed at CERN, Iref = 4.021932e-06 with trim bits 9:No loaded to any board yet
TSMC_N2WX39-06C7:TSMC_N2WX39-06C7_5_3:5:3:2:green:4:2:CERN:0:0:0:none:CERN:4.051175e-06:9:1.20575:22:1.204934:16:0.8994049:13:0:2.095E-04:1.126E-02:2.110E-04:1.091E-02:0:0:0:0:0:5553:Probed at CERN, Iref = 4.051175e-06 with trim bits 9:No loaded to any board yet
TSMC_N2WX39-06C7:TSMC_N2WX39-06C7_7_2:7:2:1:yellow:4:1:CERN:0:0:0:none:CERN:4.025823e-06:9:1.206272:28:1.194165:25:0.8967195:11:0:2.087E-04:1.154E-02:2.102E-04:1.100E-02:0:0:0:0:0:5572:Probed at CERN, Iref = 4.025823e-06 with trim bits 9:No loaded to any board yet
TSMC_N2WX39-06C7:TSMC_N2WX39-06C7_6_2:6:2:2:green:4:2:CERN:0:0:0:none:CERN:4.031672e-06:8:1.208837:24:1.192969:19:0.9002664:11:0:2.092E-04:1.283E-02:2.106E-04:1.238E-02:0:0:0:0:0:5562:Probed at CERN, Iref = 4.031672e-06 with trim bits 8:No loaded to any board yet
TSMC_N2WX39-06C7:TSMC_N2WX39-06C7_5_2:5:2:1:yellow:4:1:CERN:0:0:0:none:CERN:3.970894e-06:9:1.195897:23:1.193697:19:0.8987227:10:0:2.087E-04:1.195E-02:2.102E-04:1.151E-02:0:0:0:0:0:5552:Probed at CERN, Iref = 3.970894e-06 with trim bits 9:No loaded to any board yet
TSMC_N2WX39-06C7:TSMC_N2WX39-06C7_8_4:8:4:2:green:4:2:CERN:0:0:0:none:CERN:4.023049e-06:8:1.212227:24:1.208731:16:0.9007077:12:0:2.091E-04:1.424E-02:2.106E-04:1.382E-02:0:0:0:0:0:5584:Probed at CERN, Iref = 4.023049e-06 with trim bits 8:No loaded to any board yet
TSMC_N2WX39-06C7:TSMC_N2WX39-06C7_7_4:7:4:2:green:4:2:CERN:0:0:0:none:CERN:3.958624e-06:8:1.207258:24:1.195853:25:0.8968084:13:0:2.079E-04:1.375E-02:2.093E-04:1.336E-02:0:0:0:0:0:5574:Probed at CERN, Iref = 3.958624e-06 with trim bits 8:No loaded to any board yet
TSMC_N2WX39-06C7:TSMC_N2WX39-06C7_2_4:2:4:1:yellow:4:1:CERN:0:0:0:none:CERN:3.965403e-06:8:1.203361:24:1.192319:19:0.9021393:14:0:2.101E-04:1.091E-02:2.116E-04:1.067E-02:0:0:0:0:0:5524:Probed at CERN, Iref = 3.965403e-06 with trim bits 8:No loaded to any board yet
TSMC_N2WX39-06C7:TSMC_N2WX39-06C7_2_3:2:3:10:red:4:10:CERN:0:0:0:none:CERN:0:0:0:0:0:0:0:0:0:0.000E+00:0.000E+00:0.000E+00:0.000E+00:0:0:0:0:0:5523:Probed at CERN, Iref = 0 with trim bits 0:No loaded to any board yet
TSMC_N2WX39-06C7:TSMC_N2WX39-06C7_3_3:3:3:1:yellow:4:1:CERN:0:0:0:none:CERN:3.983443e-06:8:1.205235:28:1.201864:24:0.898621:12:0:2.089E-04:1.124E-02:2.104E-04:1.086E-02:0:0:0:0:0:5533:Probed at CERN, Iref = 3.983443e-06 with trim bits 8:No loaded to any board yet
TSMC_N2WX39-06C7:TSMC_N2WX39-06C7_6_1:6:1:2:green:4:2:CERN:0:0:0:none:CERN:3.968455e-06:6:1.202543:24:1.199143:15:0.9035035:14:0:2.109E-04:1.122E-02:2.125E-04:1.090E-02:0:0:0:0:0:5561:Probed at CERN, Iref = 3.968455e-06 with trim bits 6:No loaded to any board yet
TSMC_N2WX39-06C7:TSMC_N2WX39-06C7_5_11:5:11:1:yellow:4:1:CERN:0:0:0:none:CERN:4.028554e-06:9:1.194865:25:1.211507:24:0.9014541:10:0:2.079E-04:1.824E-02:2.094E-04:1.790E-02:0:0:0:0:0:555B:Probed at CERN, Iref = 4.028554e-06 with trim bits 9:No loaded to any board yet
TSMC_N2WX39-06C7:TSMC_N2WX39-06C7_7_5:7:5:1:yellow:4:1:CERN:0:0:0:none:CERN:4.031268e-06:7:1.189455:23:1.197203:25:0.8968152:13:0:2.084E-04:1.131E-02:2.101E-04:1.088E-02:0:0:0:0:0:5575:Probed at CERN, Iref = 4.031268e-06 with trim bits 7:No loaded to any board yet
TSMC_N2WX39-06C7:TSMC_N2WX39-06C7_4_11:4:11:1:yellow:4:1:CERN:0:0:0:none:CERN:3.947591e-06:10:1.201792:28:1.204157:22:0.8994536:8:0:2.082E-04:1.593E-02:2.096E-04:1.552E-02:0:0:0:0:0:554B:Probed at CERN, Iref = 3.947591e-06 with trim bits 10:No loaded to any board yet
TSMC_N2WX39-06C7:TSMC_N2WX39-06C7_4_6:4:6:2:green:4:2:CERN:0:0:0:none:CERN:3.983864e-06:9:1.19998:24:1.196813:19:0.8975689:14:0:2.090E-04:1.098E-02:2.106E-04:1.074E-02:0:0:0:0:0:5546:Probed at CERN, Iref = 3.983864e-06 with trim bits 9:No loaded to any board yet
TSMC_N2WX39-06C7:TSMC_N2WX39-06C7_3_6:3:6:1:yellow:4:1:CERN:0:0:0:none:CERN:4.016745e-06:10:1.192919:25:1.204683:22:0.8981375:11:0:2.091E-04:1.149E-02:2.105E-04:1.109E-02:0:0:0:0:0:5536:Probed at CERN, Iref = 4.016745e-06 with trim bits 10:No loaded to any board yet
TSMC_N2WX39-06C7:TSMC_N2WX39-06C7_2_6:2:6:2:green:4:2:CERN:0:0:0:none:CERN:3.974436e-06:9:1.195211:28:1.196522:16:0.896607:11:0:2.086E-04:1.166E-02:2.100E-04:1.150E-02:0:0:0:0:0:5526:Probed at CERN, Iref = 3.974436e-06 with trim bits 9:No loaded to any board yet
TSMC_N2WX39-06C7:TSMC_N2WX39-06C7_1_6:1:6:2:green:4:2:CERN:0:0:0:none:CERN:4.034849e-06:7:1.186964:23:1.187357:23:0.8974997:11:0:2.094E-04:1.157E-02:2.108E-04:1.123E-02:0:0:0:0:0:5516:Probed at CERN, Iref = 4.034849e-06 with trim bits 7:No loaded to any board yet
TSMC_N2WX39-06C7:TSMC_N2WX39-06C7_2_5:2:5:10:red:4:10:CERN:0:0:0:none:CERN:4.040591e-06:9:1.196289:25:1.199878:17:0.9011481:13:0:2.098E-04:1.162E-02:2.114E-04:1.107E-02:0:0:0:0:0:5525:Probed at CERN, Iref = 4.040591e-06 with trim bits 9:No loaded to any board yet
TSMC_N2WX39-06C7:TSMC_N2WX39-06C7_3_5:3:5:2:green:4:2:CERN:0:0:0:none:CERN:4.024967e-06:6:1.197935:23:1.189019:23:0.9022538:12:0:2.098E-04:1.114E-02:2.112E-04:1.076E-02:0:0:0:0:0:5535:Probed at CERN, Iref = 4.024967e-06 with trim bits 6:No loaded to any board yet
TSMC_N2WX39-06C7:TSMC_N2WX39-06C7_4_5:4:5:2:green:4:2:CERN:0:0:0:none:CERN:3.967475e-06:8:1.194278:19:1.203673:21:0.8949484:11:0:2.083E-04:1.122E-02:2.099E-04:1.082E-02:0:0:0:0:0:5545:Probed at CERN, Iref = 3.967475e-06 with trim bits 8:No loaded to any board yet
TSMC_N2WX39-06C7:TSMC_N2WX39-06C7_5_5:5:5:2:green:4:2:CERN:0:0:0:none:CERN:4.02138e-06:9:1.191622:27:1.198625:22:0.9001055:13:0:2.094E-04:1.187E-02:2.109E-04:1.126E-02:0:0:0:0:0:5555:Probed at CERN, Iref = 4.02138e-06 with trim bits 9:No loaded to any board yet
TSMC_N2WX39-06C7:TSMC_N2WX39-06C7_6_5:6:5:1:yellow:4:1:CERN:0:0:0:none:CERN:4.020552e-06:8:1.198822:23:1.202256:16:0.896338:11:0:2.083E-04:1.135E-02:2.096E-04:1.084E-02:0:0:0:0:0:5565:Probed at CERN, Iref = 4.020552e-06 with trim bits 8:No loaded to any board yet
TSMC_N2WX39-06C7:TSMC_N2WX39-06C7_3_11:3:11:2:green:4:2:CERN:0:0:0:none:CERN:4.008374e-06:9:1.197045:24:1.197643:15:0.8998163:10:0:2.079E-04:1.724E-02:2.094E-04:1.698E-02:0:0:0:0:0:553B:Probed at CERN, Iref = 4.008374e-06 with trim bits 9:No loaded to any board yet
TSMC_N2WX39-06C7:TSMC_N2WX39-06C7_7_12:7:12:2:green:4:2:CERN:0:0:0:none:CERN:3.939305e-06:6:1.201665:25:1.211738:16:0.9045105:12:0:2.101E-04:1.527E-02:2.117E-04:1.484E-02:0:0:0:0:0:557C:Probed at CERN, Iref = 3.939305e-06 with trim bits 6:No loaded to any board yet
TSMC_N2WX39-06C7:TSMC_N2WX39-06C7_6_12:6:12:1:yellow:4:1:CERN:0:0:0:none:CERN:4.062681e-06:8:1.203871:19:1.198434:17:0.9019808:11:0:2.067E-04:2.627E-02:2.082E-04:2.596E-02:0:0:0:0:0:556C:Probed at CERN, Iref = 4.062681e-06 with trim bits 8:No loaded to any board yet
TSMC_N2WX39-06C7:TSMC_N2WX39-06C7_5_12:5:12:2:green:4:2:CERN:0:0:0:none:CERN:4.029936e-06:9:1.201666:25:1.201171:19:0.8990787:10:0:2.072E-04:2.164E-02:2.086E-04:2.123E-02:0:0:0:0:0:555C:Probed at CERN, Iref = 4.029936e-06 with trim bits 9:No loaded to any board yet
TSMC_N2WX39-06C7:TSMC_N2WX39-06C7_4_12:4:12:2:green:4:2:CERN:0:0:0:none:CERN:4.006371e-06:6:1.197772:24:1.205481:20:0.900223:8:0:2.085E-04:1.815E-02:2.100E-04:1.786E-02:0:0:0:0:0:554C:Probed at CERN, Iref = 4.006371e-06 with trim bits 6:No loaded to any board yet
TSMC_N2WX39-06C7:TSMC_N2WX39-06C7_6_11:6:11:2:green:4:2:CERN:0:0:0:none:CERN:3.945554e-06:9:1.199456:26:1.193736:19:0.8996388:12:0:2.079E-04:1.796E-02:2.094E-04:1.752E-02:0:0:0:0:0:556B:Probed at CERN, Iref = 3.945554e-06 with trim bits 9:No loaded to any board yet
TSMC_N2WX39-06C7:TSMC_N2WX39-06C7_7_11:7:11:1:yellow:4:1:CERN:0:0:0:none:CERN:4.045299e-06:11:1.193286:21:1.198696:18:0.8957:11:0:2.071E-04:1.688E-02:2.084E-04:1.650E-02:0:0:0:0:0:557B:Probed at CERN, Iref = 4.045299e-06 with trim bits 11:No loaded to any board yet
TSMC_N2WX39-06C7:TSMC_N2WX39-06C7_8_11:8:11:1:yellow:4:1:CERN:0:0:0:none:CERN:4.059404e-06:8:1.187415:23:1.193457:15:0.9026526:12:0:2.090E-04:1.581E-02:2.106E-04:1.540E-02:0:0:0:0:0:558B:Probed at CERN, Iref = 4.059404e-06 with trim bits 8:No loaded to any board yet
TSMC_N2WX39-06C7:TSMC_N2WX39-06C7_6_10:6:10:2:green:4:2:CERN:0:0:0:none:CERN:4.016703e-06:9:1.201253:25:1.198536:16:0.8984281:12:0:2.085E-04:1.475E-02:2.102E-04:1.411E-02:0:0:0:0:0:556A:Probed at CERN, Iref = 4.016703e-06 with trim bits 9:No loaded to any board yet
TSMC_N2WX39-06C7:TSMC_N2WX39-06C7_5_10:5:10:2:green:4:2:CERN:0:0:0:none:CERN:4.044627e-06:8:1.207507:26:1.203922:20:0.9017621:12:0:2.087E-04:1.430E-02:2.103E-04:1.389E-02:0:0:0:0:0:555A:Probed at CERN, Iref = 4.044627e-06 with trim bits 8:No loaded to any board yet
TSMC_N2WX39-06C7:TSMC_N2WX39-06C7_4_10:4:10:10:red:4:10:CERN:0:0:0:none:CERN:0:0:0:0:0:0:0:0:0:0.000E+00:0.000E+00:0.000E+00:0.000E+00:0:0:0:0:0:554A:Probed at CERN, Iref = 0 with trim bits 0:No loaded to any board yet
TSMC_N2WX39-06C7:TSMC_N2WX39-06C7_3_9:3:9:1:yellow:4:1:CERN:0:0:0:none:CERN:3.93585e-06:7:1.201389:26:1.198606:23:0.9006746:11:0:2.094E-04:1.228E-02:2.110E-04:1.190E-02:0:0:0:0:0:5539:Probed at CERN, Iref = 3.93585e-06 with trim bits 7:No loaded to any board yet
TSMC_N2WX39-06C7:TSMC_N2WX39-06C7_4_9:4:9:2:green:4:2:CERN:0:0:0:none:CERN:4.058408e-06:10:1.193452:23:1.196035:24:0.8989207:11:0:2.088E-04:1.282E-02:2.103E-04:1.256E-02:0:0:0:0:0:5549:Probed at CERN, Iref = 4.058408e-06 with trim bits 10:No loaded to any board yet
TSMC_N2WX39-06C7:TSMC_N2WX39-06C7_5_9:5:9:2:green:4:2:CERN:0:0:0:none:CERN:3.976511e-06:9:1.202223:22:1.196287:19:0.899353:11:0:2.087E-04:1.337E-02:2.104E-04:1.281E-02:0:0:0:0:0:5559:Probed at CERN, Iref = 3.976511e-06 with trim bits 9:No loaded to any board yet
TSMC_N2WX39-06C7:TSMC_N2WX39-06C7_9_9:9:9:1:yellow:4:1:CERN:0:0:0:none:CERN:3.969458e-06:7:1.197057:27:1.197017:21:0.900976:11:0:2.089E-04:1.343E-02:2.105E-04:1.295E-02:0:0:0:0:0:5599:Probed at CERN, Iref = 3.969458e-06 with trim bits 7:No loaded to any board yet
TSMC_N2WX39-06C7:TSMC_N2WX39-06C7_10_9:10:9:10:red:4:10:CERN:0:0:0:none:CERN:0:0:0:0:0:0:0:0:0:0.000E+00:0.000E+00:0.000E+00:0.000E+00:0:0:0:0:0:55A9:Probed at CERN, Iref = 0 with trim bits 0:No loaded to any board yet
TSMC_N2WX39-06C7:TSMC_N2WX39-06C7_10_8:10:8:1:yellow:4:1:CERN:0:0:0:none:CERN:3.946894e-06:5:1.209665:24:1.196636:18:0.8978412:9:0:2.089E-04:1.151E-02:2.104E-04:1.102E-02:0:0:0:0:0:55A8:Probed at CERN, Iref = 3.946894e-06 with trim bits 5:No loaded to any board yet
TSMC_N2WX39-06C7:TSMC_N2WX39-06C7_9_8:9:8:2:green:4:2:CERN:0:0:0:none:CERN:3.969285e-06:6:1.19833:26:1.195529:19:0.9004831:11:0:2.095E-04:1.235E-02:2.111E-04:1.175E-02:0:0:0:0:0:5598:Probed at CERN, Iref = 3.969285e-06 with trim bits 6:No loaded to any board yet
TSMC_N2WX39-06C7:TSMC_N2WX39-06C7_5_8:5:8:1:yellow:4:1:CERN:0:0:0:none:CERN:3.946972e-06:9:1.196638:18:1.203985:18:0.8999817:10:0:2.088E-04:1.227E-02:2.102E-04:1.194E-02:0:0:0:0:0:5558:Probed at CERN, Iref = 3.946972e-06 with trim bits 9:No loaded to any board yet
TSMC_N2WX39-06C7:TSMC_N2WX39-06C7_4_8:4:8:2:green:4:2:CERN:0:0:0:none:CERN:4.01938e-06:6:1.192361:19:1.199483:23:0.8978954:9:0:2.090E-04:1.136E-02:2.105E-04:1.086E-02:0:0:0:0:0:5548:Probed at CERN, Iref = 4.01938e-06 with trim bits 6:No loaded to any board yet
TSMC_N2WX39-06C7:TSMC_N2WX39-06C7_3_8:3:8:2:green:4:2:CERN:0:0:0:none:CERN:3.939448e-06:7:1.204621:26:1.192938:19:0.8993694:13:0:2.090E-04:1.155E-02:2.103E-04:1.128E-02:0:0:0:0:0:5538:Probed at CERN, Iref = 3.939448e-06 with trim bits 7:No loaded to any board yet
TSMC_N2WX39-06C7:TSMC_N2WX39-06C7_2_7:2:7:1:yellow:4:1:CERN:0:0:0:none:CERN:3.981588e-06:11:1.208586:28:1.205613:22:0.9000974:11:0:2.093E-04:1.121E-02:2.109E-04:1.086E-02:0:0:0:0:0:5527:Probed at CERN, Iref = 3.981588e-06 with trim bits 11:No loaded to any board yet
TSMC_N2WX39-06C7:TSMC_N2WX39-06C7_3_7:3:7:2:green:4:2:CERN:0:0:0:none:CERN:4.008278e-06:9:1.198273:21:1.195578:21:0.8978044:10:0:2.089E-04:1.170E-02:2.103E-04:1.136E-02:0:0:0:0:0:5537:Probed at CERN, Iref = 4.008278e-06 with trim bits 9:No loaded to any board yet
TSMC_N2WX39-06C7:TSMC_N2WX39-06C7_4_7:4:7:10:red:4:10:CERN:0:0:0:none:CERN:0:0:0:0:0:0:0:0:0:0.000E+00:0.000E+00:0.000E+00:0.000E+00:0:0:0:0:0:5547:Probed at CERN, Iref = 0 with trim bits 0:No loaded to any board yet
TSMC_N2WX39-06C7:TSMC_N2WX39-06C7_8_7:8:7:1:yellow:4:1:CERN:0:0:0:none:CERN:3.9565e-06:9:1.204003:27:1.198977:17:0.8987419:10:0:2.072E-04:1.920E-02:2.089E-04:1.869E-02:0:0:0:0:0:5587:Probed at CERN, Iref = 3.9565e-06 with trim bits 9:No loaded to any board yet
TSMC_N2WX39-06C7:TSMC_N2WX39-06C7_9_7:9:7:1:yellow:4:1:CERN:0:0:0:none:CERN:4.004753e-06:7:1.200873:28:1.197318:18:0.9046451:12:0:2.108E-04:1.175E-02:2.123E-04:1.126E-02:0:0:0:0:0:5597:Probed at CERN, Iref = 4.004753e-06 with trim bits 7:No loaded to any board yet
TSMC_N2WX39-06C7:TSMC_N2WX39-06C7_10_7:10:7:1:yellow:4:1:CERN:0:0:0:none:CERN:4.014808e-06:7:1.199867:25:1.201203:22:0.8997722:10:0:2.096E-04:1.137E-02:2.112E-04:1.081E-02:0:0:0:0:0:55A7:Probed at CERN, Iref = 4.014808e-06 with trim bits 7:No loaded to any board yet
TSMC_N2WX39-06C7:TSMC_N2WX39-06C7_7_6:7:6:2:green:4:2:CERN:0:0:0:none:CERN:4.049652e-06:8:1.190592:23:1.197968:19:0.9013742:11:0:2.093E-04:1.211E-02:2.108E-04:1.173E-02:0:0:0:0:0:5576:Probed at CERN, Iref = 4.049652e-06 with trim bits 8:No loaded to any board yet
TSMC_N2WX39-06C7:TSMC_N2WX39-06C7_6_6:6:6:2:green:4:2:CERN:0:0:0:none:CERN:3.956631e-06:7:1.199982:25:1.191423:19:0.9009491:14:0:2.096E-04:1.156E-02:2.112E-04:1.117E-02:0:0:0:0:0:5566:Probed at CERN, Iref = 3.956631e-06 with trim bits 7:No loaded to any board yet
TSMC_N2WX39-06C7:TSMC_N2WX39-06C7_5_6:5:6:1:yellow:4:1:CERN:0:0:0:none:CERN:4.010739e-06:10:1.212559:24:1.197948:16:0.8997554:13:0:2.097E-04:1.206E-02:2.113E-04:1.157E-02:0:0:0:0:0:5556:Probed at CERN, Iref = 4.010739e-06 with trim bits 10:No loaded to any board yet
TSMC_N2WX39-06C7:TSMC_N2WX39-06C7_10_5:10:5:1:yellow:4:1:CERN:0:0:0:none:CERN:3.946358e-06:7:1.199976:27:1.205777:18:0.8996819:11:0:2.097E-04:1.100E-02:2.113E-04:1.048E-02:0:0:0:0:0:55A5:Probed at CERN, Iref = 3.946358e-06 with trim bits 7:No loaded to any board yet
TSMC_N2WX39-06C7:TSMC_N2WX39-06C7_9_4:9:4:1:yellow:4:1:CERN:0:0:0:none:CERN:4.050617e-06:8:1.210981:24:1.191822:19:0.9017028:8:0:2.096E-04:1.127E-02:2.111E-04:1.084E-02:0:0:0:0:0:5594:Probed at CERN, Iref = 4.050617e-06 with trim bits 8:No loaded to any board yet
TSMC_N2WX39-06C7:TSMC_N2WX39-06C7_6_4:6:4:2:green:4:2:CERN:0:0:0:none:CERN:4.043322e-06:8:1.201043:21:1.199326:20:0.9047806:12:0:2.099E-04:1.408E-02:2.114E-04:1.363E-02:0:0:0:0:0:5564:Probed at CERN, Iref = 4.043322e-06 with trim bits 8:No loaded to any board yet
TSMC_N2WX39-06C7:TSMC_N2WX39-06C7_5_4:5:4:1:yellow:4:1:CERN:0:0:0:none:CERN:4.032913e-06:9:1.192053:27:1.198204:17:0.8989118:11:0:2.088E-04:1.284E-02:2.103E-04:1.258E-02:0:0:0:0:0:5554:Probed at CERN, Iref = 4.032913e-06 with trim bits 9:No loaded to any board yet
TSMC_N2WX39-06C7:TSMC_N2WX39-06C7_4_4:4:4:2:green:4:2:CERN:0:0:0:none:CERN:3.942106e-06:5:1.200431:22:1.197369:22:0.8973953:11:0:2.085E-04:1.182E-02:2.100E-04:1.142E-02:0:0:0:0:0:5544:Probed at CERN, Iref = 3.942106e-06 with trim bits 5:No loaded to any board yet
TSMC_N2WX39-06C7:TSMC_N2WX39-06C7_3_4:3:4:2:green:4:2:CERN:0:0:0:none:CERN:4.04873e-06:8:1.206336:24:1.197774:18:0.9001273:11:0:2.095E-04:1.154E-02:2.109E-04:1.107E-02:0:0:0:0:0:5534:Probed at CERN, Iref = 4.04873e-06 with trim bits 8:No loaded to any board yet
TSMC_N2WX39-06C7:TSMC_N2WX39-06C7_6_3:6:3:2:green:4:2:CERN:0:0:0:none:CERN:3.975224e-06:11:1.201568:24:1.192595:25:0.8976332:11:0:2.092E-04:1.124E-02:2.106E-04:1.090E-02:0:0:0:0:0:5563:Probed at CERN, Iref = 3.975224e-06 with trim bits 11:No loaded to any board yet
TSMC_N2WX39-06C7:TSMC_N2WX39-06C7_7_3:7:3:1:yellow:4:1:CERN:0:0:0:none:CERN:3.997969e-06:8:1.189079:23:1.196574:21:0.9024708:12:0:2.100E-04:1.075E-02:2.114E-04:1.040E-02:0:0:0:0:0:5573:Probed at CERN, Iref = 3.997969e-06 with trim bits 8:No loaded to any board yet
TSMC_N2WX39-06C7:TSMC_N2WX39-06C7_8_3:8:3:2:green:4:2:CERN:0:0:0:none:CERN:4.0156e-06:8:1.20486:26:1.197301:18:0.8999164:14:0:2.097E-04:1.106E-02:2.111E-04:1.081E-02:0:0:0:0:0:5583:Probed at CERN, Iref = 4.0156e-06 with trim bits 8:No loaded to any board yet
TSMC_N2WX39-06C7:TSMC_N2WX39-06C7_9_3:9:3:1:yellow:4:1:CERN:0:0:0:none:CERN:4.069202e-06:12:1.194786:25:1.200847:19:0.9014825:12:0:2.100E-04:1.079E-02:2.115E-04:1.048E-02:0:0:0:0:0:5593:Probed at CERN, Iref = 4.069202e-06 with trim bits 12:No loaded to any board yet
TSMC_N2WX39-06C7:TSMC_N2WX39-06C7_8_2:8:2:2:green:4:2:CERN:0:0:0:none:CERN:4.004363e-06:8:1.210879:24:1.196778:20:0.8994676:11:0:2.097E-04:1.094E-02:2.111E-04:1.068E-02:0:0:0:0:0:5582:Probed at CERN, Iref = 4.004363e-06 with trim bits 8:No loaded to any board yet
TSMC_N2WX39-06C7:TSMC_N2WX39-06C7_4_2:4:2:1:yellow:4:1:CERN:0:0:0:none:CERN:4.021315e-06:10:1.200128:25:1.200396:20:0.8998711:13:0:2.095E-04:1.147E-02:2.110E-04:1.112E-02:0:0:0:0:0:5542:Probed at CERN, Iref = 4.021315e-06 with trim bits 10:No loaded to any board yet
TSMC_N2WX39-06C7:TSMC_N2WX39-06C7_5_1:5:1:1:yellow:4:1:CERN:0:0:0:none:CERN:3.973968e-06:7:1.200516:23:1.202265:18:0.9023684:14:0:2.108E-04:1.156E-02:2.124E-04:1.118E-02:0:0:0:0:0:5551:Probed at CERN, Iref = 3.973968e-06 with trim bits 7:No loaded to any board yet
